Division,WeightClassKg,Place,Name,Team,BodyweightKg,Best3SquatKg,Best3BenchKg,Best3DeadliftKg,TotalKg,Equipment,Event,Sex,BirthDate
Girls,44.23,1,Katarina Garza,Runge,43.5,142.88,74.84,124.74,342.46,Unlimited,SBD,F,
Girls,44.23,2,Karelen Bastida,Skidmore-Tynan,44,113.4,68.04,97.52,278.96,Unlimited,SBD,F,
Girls,44.23,3,Julia Hernandez,Cumby,42.73,97.52,61.23,104.33,263.08,Unlimited,SBD,F,
Girls,44.23,4,Brylee Wright,Alvord,40.28,106.59,56.7,95.25,258.55,Unlimited,SBD,F,
Girls,44.23,5,Briana Loera,Rosebud-Lott,43.27,104.33,49.9,95.25,249.48,Unlimited,SBD,F,
Girls,44.23,6,Ashlyn Crabtree,Junction,43.36,88.45,56.7,102.06,247.21,Unlimited,SBD,F,
Girls,44.23,7,Makala Rodriguez,Itasca,43.68,97.52,49.9,97.52,244.94,Unlimited,SBD,F,
Girls,44.23,8,Natalie Sanchez,Louise,43.27,74.84,47.63,83.91,206.38,Unlimited,SBD,F,
Girls,44.23,9,Maddison Scott,Simms Bowie,42.64,74.84,47.63,68.04,190.51,Unlimited,SBD,F,
Girls,44.23,10,Scarlett Whitworth,Perrin-Whitt,42,61.23,27.22,86.18,174.63,Unlimited,SBD,F,
Girls,44.23,DQ,Cassie Corredor,New Home,44.18,,,,,Unlimited,SBD,F,
Girls,47.85,1,Zoey Welch,Roscoe Collegiate,46.27,136.08,65.77,124.74,326.59,Unlimited,SBD,F,
Girls,47.85,2,Paula Gonzales,Skidmore-Tynan,46.77,122.47,63.5,136.08,322.05,Unlimited,SBD,F,
Girls,47.85,3,Kaycei Salazar,La Villa,46.18,120.2,72.57,120.2,312.98,Unlimited,SBD,F,
Girls,47.85,4,Rocio Ordonez,Whitewright,47.31,120.2,68.04,124.74,312.98,Unlimited,SBD,F,
Girls,47.85,5,Alleyah Franco,Simms Bowie,47.72,117.93,56.7,136.08,310.71,Unlimited,SBD,F,
Girls,47.85,6,Priscilla Almazan,Santa Maria,46.67,122.47,63.5,117.93,303.91,Unlimited,SBD,F,
Girls,47.85,7,Zoe Baumann,Mertzon Irion County,47.63,108.86,63.5,124.74,297.1,Unlimited,SBD,F,
Girls,47.85,8,Jaelin Wylie,Sundown,46.4,115.67,63.5,111.13,290.3,Unlimited,SBD,F,
Girls,47.85,9,Monique Lara,Lockney,47.85,106.59,56.7,115.67,278.96,Unlimited,SBD,F,
Girls,47.85,10,Jo Schoppe,Junction,47.31,97.52,68.04,102.06,267.62,Unlimited,SBD,F,
Girls,47.85,11,Zoey Ybarra,Ganado,47.26,108.86,45.36,111.13,265.35,Unlimited,SBD,F,
Girls,47.85,12,Talia Yanez,Thrall,46.54,97.52,49.9,99.79,247.21,Unlimited,SBD,F,
Girls,47.85,13,Carley Wren,Celeste,47.4,95.25,56.7,95.25,247.21,Unlimited,SBD,F,
Girls,47.85,14,Dayanara Cabrera,Slidell,47.13,90.72,38.56,99.79,229.06,Unlimited,SBD,F,
Girls,47.85,15,Kellyn Smoke,Corrigan-Camden,47.67,83.91,47.63,97.52,229.06,Unlimited,SBD,F,
Girls,47.85,DQ,Avery Badillo,Ozona,47.31,,,,,Unlimited,SBD,F,
Girls,47.85,DQ,Faith Quiroz,Ozona,45.9,,,,,Unlimited,SBD,F,
Girls,47.85,DQ,Raelynn Barrera,Ozona,46.54,,,,,Unlimited,SBD,F,
Girls,47.85,DQ,Avery Koonce,Thrall,46.54,,,,,Unlimited,SBD,F,
Girls,51.94,1,Alejandra Alegria,Eldorado,49.8,142.88,88.45,120.2,351.53,Unlimited,SBD,F,
Girls,51.94,2,Sonora Flowers,Honey Grove,50.48,131.54,77.11,136.08,344.73,Unlimited,SBD,F,
Girls,51.94,3,Mayson Smith,Harleton,50.03,120.2,97.52,124.74,342.46,Unlimited,SBD,F,
Girls,51.94,4,Jordynn Velasquez,Kenedy,50.76,129.27,79.38,124.74,333.39,Unlimited,SBD,F,
Girls,51.94,5,Quetzal Vasquez,Refugio,51.94,133.81,68.04,127.01,328.85,Unlimited,SBD,F,
Girls,51.94,6,Marlie Scott,Tahoka,50.89,122.47,72.57,129.27,324.32,Unlimited,SBD,F,
Girls,51.94,7,Minelly Montes,Eldorado,51.85,120.2,72.57,124.74,317.51,Unlimited,SBD,F,
Girls,51.94,8,Aleyda Flores,Big Lake Reagan County,51.53,133.81,54.43,127.01,315.25,Unlimited,SBD,F,
Girls,51.94,9,Kayla Ready,Harleton,51.62,120.2,72.57,120.2,312.98,Unlimited,SBD,F,
Girls,51.94,10,Mercedez Cantu,Seagraves,51.26,120.2,56.7,131.54,308.44,Unlimited,SBD,F,
Girls,51.94,11,Sydney Wyrwich,Stockdale,51.3,113.4,58.97,136.08,308.44,Unlimited,SBD,F,
Girls,51.94,12,Alexis Huffman,Garrison,50.3,117.93,72.57,113.4,303.91,Unlimited,SBD,F,
Girls,51.94,13,Amanda Cortez,Eldorado,51.17,108.86,74.84,106.59,290.3,Unlimited,SBD,F,
Girls,51.94,14,Avery Fox,Alvord,50.53,113.4,58.97,99.79,272.16,Unlimited,SBD,F,
Girls,51.94,15,Germaiya Robinson,Chilton,49.17,88.45,52.16,122.47,263.08,Unlimited,SBD,F,
Girls,51.94,16,Hannah Ochoa,Louise,48.53,90.72,54.43,115.67,260.82,Unlimited,SBD,F,
Girls,51.94,17,Jaycee Chandler,Thrall,50.89,104.33,43.09,104.33,251.74,Unlimited,SBD,F,
Girls,51.94,18,Zoey Pajestka,Holland,51.03,102.06,45.36,97.52,244.94,Unlimited,SBD,F,
Girls,51.94,19,Juana Zamudio,Ganado,51.94,81.65,49.9,111.13,242.67,Unlimited,SBD,F,
Girls,56.02,1,Thania Flores,Agua Dulce,54.2,154.22,77.11,140.61,371.95,Unlimited,SBD,F,
Girls,56.02,2,Melanie Garza,Santa Maria,53.48,163.29,68.04,133.81,365.14,Unlimited,SBD,F,
Girls,56.02,3,Bailey Cannon,Rosebud-Lott,55.29,142.88,77.11,142.88,362.87,Unlimited,SBD,F,
Girls,56.02,4,Kailyn Freeman,Honey Grove,55.29,131.54,92.99,124.74,349.27,Unlimited,SBD,F,
Girls,56.02,5,Kindra Adkins,Stamford,55.2,145.15,63.5,138.35,347,Unlimited,SBD,F,
Girls,56.02,6,ShaZayah Jones,Chilton,54.25,140.61,70.31,131.54,342.46,Unlimited,SBD,F,
Girls,56.02,7,Anahi Narvaez,Big Lake Reagan County,55.52,142.88,70.31,129.27,342.46,Unlimited,SBD,F,
Girls,56.02,8,Alexis Martinez,Eldorado,55.16,138.35,65.77,131.54,335.66,Unlimited,SBD,F,
Girls,56.02,9,Kylin May,Kerens,53.48,136.08,54.43,111.13,301.64,Unlimited,SBD,F,
Girls,56.02,10,Jordyn Bundick,Ganado,54.75,106.59,61.23,120.2,288.03,Unlimited,SBD,F,
Girls,56.02,11,Catherine Youngblood,Gilmer Union Hill,53.57,108.86,63.5,113.4,285.76,Unlimited,SBD,F,
Girls,56.02,12,Makinzie Tovar,Ganado,53.89,81.65,45.36,95.25,222.26,Unlimited,SBD,F,
Girls,56.02,DQ,Jenna Gould,Frankston,55.79,129.27,,,,Unlimited,SBD,F,
Girls,56.02,DQ,McKenna Kelley,Willow Park Trinity Christian Academy,54.43,,,,,Unlimited,SBD,F,
Girls,60.1,1,Daisy Mora,Alvord,59.42,165.56,68.04,158.76,392.36,Unlimited,SBD,F,
Girls,60.1,2,Maci McMillan,Bosqueville,58.74,140.61,90.72,145.15,376.48,Unlimited,SBD,F,
Girls,60.1,3,Hanah Alcocer,Kenedy,58.51,149.69,79.38,138.35,367.41,Unlimited,SBD,F,
Girls,60.1,4,Kirsten Poling,Bangs,58.97,140.61,74.84,138.35,353.8,Unlimited,SBD,F,
Girls,60.1,5,Marissa Ramos,Charlotte,59.06,149.69,61.23,140.61,351.53,Unlimited,SBD,F,
Girls,60.1,6,Jade Knoerr,Alvord,59.28,138.35,70.31,136.08,344.73,Unlimited,SBD,F,
Girls,60.1,7,Stephanie Mills,Kerens,59.19,136.08,65.77,124.74,326.59,Unlimited,SBD,F,
Girls,60.1,8,Rhiley Drozd,Louise,58.92,102.06,52.16,106.59,260.82,Unlimited,SBD,F,
Girls,60.1,9,Mia Whitehead,Hull-Daisetta,59.38,58.97,40.82,97.52,197.31,Unlimited,SBD,F,
Girls,60.1,DQ,Mya Rostro,Big Lake Reagan County,58.97,,,,,Unlimited,SBD,F,
Girls,60.1,DQ,Carmen Mata,Eldorado,59.42,124.74,,,,Unlimited,SBD,F,
Girls,60.1,DQ,Adele Hawkins,Laird Hill Leveretts Chapel,59.87,,,,,Unlimited,SBD,F,
Girls,60.1,DQ,Alison Hardwick,Collinsville,59.87,,,,,Unlimited,SBD,F,
Girls,67.36,1,Jordyn Stutts,Thorndale,63.23,183.7,99.79,140.61,424.11,Unlimited,SBD,F,
Girls,67.36,2,Allyson Matheny,Miles,64.86,170.1,90.72,154.22,415.04,Unlimited,SBD,F,
Girls,67.36,3,Ava Adams,Ben Bolt-Palito Blanco,63.46,176.9,86.18,149.69,412.77,Unlimited,SBD,F,
Girls,67.36,4,Paige Polk,Christoval,66.68,167.83,79.38,165.56,412.77,Unlimited,SBD,F,
Girls,67.36,5,Mackinzie Wells,Sabinal,65.59,154.22,86.18,154.22,394.63,Unlimited,SBD,F,
Girls,67.36,6,Adamari Solis,Iraan,66,145.15,92.99,154.22,392.36,Unlimited,SBD,F,
Girls,67.36,7,Jayden Rodrigues,Garrison,67.04,154.22,92.99,136.08,383.29,Unlimited,SBD,F,
Girls,67.36,8,Lilly Martinez,Holland,66.36,142.88,77.11,149.69,369.68,Unlimited,SBD,F,
Girls,67.36,9,Leane Jalomo,Colmesneil,64,145.15,70.31,138.35,353.8,Unlimited,SBD,F,
Girls,67.36,10,Monica Montes,Louise,65.59,136.08,77.11,129.27,342.46,Unlimited,SBD,F,
Girls,67.36,11,Courtney Brumley,Whitewright,65.05,122.47,54.43,122.47,299.37,Unlimited,SBD,F,
Girls,67.36,DQ,Daniela Martinez,Santa Maria,63.46,,,,,Unlimited,SBD,F,
Girls,67.36,DQ,Ariana Heredia,Kress,65.68,156.49,,,,Unlimited,SBD,F,
Girls,67.36,DQ,Addie Holt,Simms Bowie,65.36,,,,,Unlimited,SBD,F,
Girls,67.36,DQ,Cassidy Skelton,Alvord,60.96,136.08,,,,Unlimited,SBD,F,
Girls,75.07,1,Ciara Allbritton,Garrison,70.17,192.78,92.99,167.83,453.59,Unlimited,SBD,F,
Girls,75.07,2,Mari Esparza,Eldorado,72.85,161.03,104.33,142.88,408.23,Unlimited,SBD,F,
Girls,75.07,3,Addison Scott,Colorado City Colorado,74.39,145.15,106.59,154.22,405.97,Unlimited,SBD,F,
Girls,75.07,4,Jackie Maldonado,Rosebud-Lott,73.39,161.03,95.25,147.42,403.7,Unlimited,SBD,F,
Girls,75.07,5,Isabella Almazan,La Villa,69.54,163.29,83.91,151.95,399.16,Unlimited,SBD,F,
Girls,75.07,6,Mimi Martinez,Eldorado,74.62,151.95,97.52,142.88,392.36,Unlimited,SBD,F,
Girls,75.07,7,Jaikylie Baker,Kress,73.12,142.88,79.38,158.76,381.02,Unlimited,SBD,F,
Girls,75.07,8,Julia Grisham,Axtell,72.26,145.15,97.52,136.08,378.75,Unlimited,SBD,F,
Girls,75.07,9,Dayna Davila,Premont,72.8,154.22,95.25,124.74,374.21,Unlimited,SBD,F,
Girls,75.07,10,Sherlyn Mondragon,Rosebud-Lott,74.57,151.95,86.18,136.08,374.21,Unlimited,SBD,F,
Girls,75.07,11,Nelly Thiessen,Panhandle,74.07,147.42,79.38,142.88,369.68,Unlimited,SBD,F,
Girls,75.07,12,Ashtin Stout,Deweyville,73.75,156.49,83.91,122.47,362.87,Unlimited,SBD,F,
Girls,75.07,13,Lilly Campbell,Cumby,71.35,142.88,70.31,147.42,360.61,Unlimited,SBD,F,
Girls,75.07,14,Lakia Cummings,Rosebud-Lott,73.21,136.08,68.04,154.22,358.34,Unlimited,SBD,F,
Girls,75.07,15,Jaycee Bryson,Muenster,68.81,108.86,68.04,136.08,312.98,Unlimited,SBD,F,
Girls,75.07,16,Lillian Gilliland,Savoy,72.12,108.86,81.65,117.93,308.44,Unlimited,SBD,F,
Girls,75.07,DQ,Mackynzie Cranford,Garrison,67.68,147.42,,,,Unlimited,SBD,F,
Girls,75.07,DQ,Heidi Calverley,Hull-Daisetta,73.84,102.06,61.23,,,Unlimited,SBD,F,
Girls,75.07,DQ,Rebecca Shields,Hawley,72.94,138.35,,,,Unlimited,SBD,F,
Girls,82.33,1,Nyomi Aranda,Eldorado,76.2,181.44,115.67,156.49,453.59,Unlimited,SBD,F,
Girls,82.33,2,Annalise Marquez,Marfa,78.24,188.24,99.79,145.15,433.18,Unlimited,SBD,F,
Girls,82.33,3,Tana Smith,Panhandle,79.02,176.9,79.38,172.37,428.64,Unlimited,SBD,F,
Girls,82.33,4,Madelynn Leon,Tahoka,80.29,172.37,90.72,154.22,417.3,Unlimited,SBD,F,
Girls,82.33,5,Carli Wright,Bosqueville,80.74,154.22,102.06,158.76,415.04,Unlimited,SBD,F,
Girls,82.33,6,Lani Decker,Chico,78.38,158.76,68.04,165.56,392.36,Unlimited,SBD,F,
Girls,82.33,7,Jayden Pierson,Laird Hill Leveretts Chapel,82.33,136.08,95.25,161.03,392.36,Unlimited,SBD,F,
Girls,82.33,8,Brinley Siems,Valley Mills,81.47,147.42,83.91,158.76,390.09,Unlimited,SBD,F,
Girls,82.33,9,Mia Watson,Coleman,76.97,158.76,79.38,147.42,385.55,Unlimited,SBD,F,
Girls,82.33,10,Aleah Lyons,Harleton,81.6,161.03,97.52,124.74,383.29,Unlimited,SBD,F,
Girls,82.33,11,Jasmin Elissetche,La Villa,81.65,156.49,70.31,149.69,376.48,Unlimited,SBD,F,
Girls,82.33,12,Mackenzi Smith,Skidmore-Tynan,80.47,154.22,63.5,131.54,349.27,Unlimited,SBD,F,
Girls,82.33,13,Giselle Gonzalez,Deweyville,78.52,136.08,74.84,120.2,331.12,Unlimited,SBD,F,
Girls,82.33,14,Addison Garcia,Corrigan-Camden,75.25,113.4,58.97,115.67,288.03,Unlimited,SBD,F,
Girls,82.33,15,Averi Aviles,Trenton,75.25,111.13,56.7,113.4,281.23,Unlimited,SBD,F,
Girls,82.33,DQ,Lupe Esparza,Eldorado,79.7,170.1,,,,Unlimited,SBD,F,
Girls,82.33,DQ,Abigail Stufflebeme,Trenton,82.1,,,,,Unlimited,SBD,F,
Girls,90.04,1,Kadence Pettit,Cumby,88.13,174.63,111.13,154.22,439.98,Unlimited,SBD,F,
Girls,90.04,2,Amelia Gamez,Harleton,89.27,183.7,111.13,136.08,430.91,Unlimited,SBD,F,
Girls,90.04,3,Brynlee Berend,Muenster,84.55,167.83,102.06,147.42,417.3,Unlimited,SBD,F,
Girls,90.04,4,Blanca Hernandez,Hawley,89.04,174.63,88.45,154.22,417.3,Unlimited,SBD,F,
Girls,90.04,5,Lindsey McCullough,Simms Bowie,88.63,179.17,72.57,149.69,401.43,Unlimited,SBD,F,
Girls,90.04,6,Maggie Segovia,Tahoka,87.72,176.9,79.38,138.35,394.63,Unlimited,SBD,F,
Girls,90.04,7,Anna Warren,Muenster,83.42,151.95,79.38,147.42,378.75,Unlimited,SBD,F,
Girls,90.04,8,Adriana Franco,Rocksprings,88.86,122.47,92.99,161.03,376.48,Unlimited,SBD,F,
Girls,90.04,9,Austyn Graham,San Saba,82.78,151.95,86.18,136.08,374.21,Unlimited,SBD,F,
Girls,90.04,10,Lizette Castillo,Bloomington,89.58,136.08,61.23,163.29,360.61,Unlimited,SBD,F,
Girls,90.04,11,Brenda Govea,Ganado,84.82,90.72,36.29,97.52,224.53,Unlimited,SBD,F,
Girls,90.04,DQ,Nayiahlee Vasquez,Lockney,83.6,,,,,Unlimited,SBD,F,
Girls,90.04,DQ,Allysun Tays,Rosebud-Lott,88.59,170.1,92.99,,,Unlimited,SBD,F,
Girls,100.02,1,Natalie Herrera,Premont,97.43,244.94,104.33,195.04,544.31,Unlimited,SBD,F,
Girls,100.02,2,Lexi Luby,Harleton,99.88,181.44,124.74,158.76,464.93,Unlimited,SBD,F,
Girls,100.02,3,Rosemary Soliz,Whiteface,98.16,170.1,115.67,158.76,444.52,Unlimited,SBD,F,
Girls,100.02,4,Ciara Hernandez,Lockney,97.48,179.17,97.52,136.08,412.77,Unlimited,SBD,F,
Girls,100.02,5,Roxy Bustillo,Dawson,91.94,163.29,79.38,154.22,396.89,Unlimited,SBD,F,
Girls,100.02,6,Gracie Fitzgerald,Thrall,92.67,176.9,74.84,140.61,392.36,Unlimited,SBD,F,
Girls,100.02,7,Rochelle Rogers,La Pryor,97.07,158.76,90.72,142.88,392.36,Unlimited,SBD,F,
Girls,100.02,8,Jaymi Patterson,Rosebud-Lott,94.8,142.88,102.06,131.54,376.48,Unlimited,SBD,F,
Girls,100.02,9,Lily Mahan,Honey Grove,92.26,145.15,70.31,158.76,374.21,Unlimited,SBD,F,
Girls,100.02,10,Audrie Caballero,Corrigan-Camden,95.62,136.08,63.5,120.2,319.78,Unlimited,SBD,F,
Girls,100.02,DQ,Sarah Cox,Slidell,93.85,133.81,58.97,,,Unlimited,SBD,F,
Girls,100.02,DQ,Hayden Nowak,Strawn,97.61,,,,,Unlimited,SBD,F,
Girls,110,1,Mia Gray,Sunray,103.46,188.24,88.45,188.24,464.93,Unlimited,SBD,F,
Girls,110,2,Paola Howell,Roscoe Collegiate,104.64,195.04,83.91,165.56,444.52,Unlimited,SBD,F,
Girls,110,3,Halle Bonner,Joaquin,100.11,174.63,88.45,163.29,426.38,Unlimited,SBD,F,
Girls,110,4,Mercedes Wilson,Groveton,100.06,179.17,90.72,147.42,417.3,Unlimited,SBD,F,
Girls,110,5,Kinley Wragge,Hubbard,103.87,170.1,92.99,151.95,415.04,Unlimited,SBD,F,
Girls,110,6,Treycie Lerma,Freer,108.54,154.22,99.79,158.76,412.77,Unlimited,SBD,F,
Girls,110,7,Hailey Obstoj,Moody,104.37,172.37,86.18,151.95,410.5,Unlimited,SBD,F,
Girls,110,8,Emma Delafuente,Bruni,102.33,176.9,97.52,108.86,383.29,Unlimited,SBD,F,
Girls,110,9,Liliana Serna,Ganado,102.29,158.76,79.38,115.67,353.8,Unlimited,SBD,F,
Girls,110,10,Ava Burks,Corrigan-Camden,107.37,136.08,56.7,127.01,319.78,Unlimited,SBD,F,
Girls,110,DQ,Tavyn Mayes,Garner,103.19,,,,,Unlimited,SBD,F,
Girls,110,DQ,Brooklyn Henderson,Maud,110,,,,,Unlimited,SBD,F,
Girls,110+,1,Daisy Luna,La Villa,112.72,208.65,120.2,163.29,492.15,Unlimited,SBD,F,
Girls,110+,2,Alyssa Kraayvanger,Hubbard,118.34,174.63,104.33,185.97,464.93,Unlimited,SBD,F,
Girls,110+,3,Carrie Bixler,Hawkins,134.63,197.31,113.4,154.22,464.93,Unlimited,SBD,F,
Girls,110+,4,Reagan Kelley,Sherman Texoma Christian School,181.66,183.7,90.72,181.44,455.86,Unlimited,SBD,F,
Girls,110+,5,Olivia Wren,Chilton,131.41,163.29,95.25,188.24,446.79,Unlimited,SBD,F,
Girls,110+,6,Courtney Parks,Coleman,129.14,199.58,97.52,147.42,444.52,Unlimited,SBD,F,
Girls,110+,7,Alejandra Hinojosa,Ben Bolt-Palito Blanco,145.38,185.97,99.79,147.42,433.18,Unlimited,SBD,F,
Girls,110+,8,Erica Melchor,Louise,125.1,151.95,102.06,147.42,401.43,Unlimited,SBD,F,
Girls,110+,9,Giselle Ramirez,Big Lake Reagan County,117.21,170.1,88.45,140.61,399.16,Unlimited,SBD,F,
Girls,110+,10,Katelynn Cibrian,Deweyville,115.21,149.69,86.18,151.95,387.82,Unlimited,SBD,F,
Girls,110+,11,Isabell Lane,Grapeland,112.4,156.49,70.31,158.76,385.55,Unlimited,SBD,F,
Girls,110+,12,Hannah Fletcher,Honey Grove,122.74,140.61,72.57,122.47,335.66,Unlimited,SBD,F,
