﻿Place,Name,Event,Sex,State,BirthDate,Division,BodyweightKg,WeightClassKg,Squat1Kg,Squat2Kg,Squat3Kg,Best3SquatKg,Bench1Kg,Bench2Kg,Bench3Kg,Best3BenchKg,Deadlift1Kg,Deadlift2Kg,Deadlift3Kg,Best3DeadliftKg,TotalKg,Equipment
1,Pamela Hodder,SBD,F,AB,,Masters 1,75.81,76,140,-147.5,-147.5,140,-120,120,-123.5,120,125,135,145,145,405,Single-ply
1,Owen Bowes,SBD,M,AB,,Sub-Juniors,64.48,66,-145,157.5,160,160,-102.5,107.5,-116,107.5,170,-185,192.5,192.5,460,Raw
1,Alexander Bugbee,SBD,M,AB,,Sub-Juniors,77.67,83,-185,190,-195,190,117.5,125,130,130,195,207.5,220,220,540,Raw
1,Ivan Sy,SBD,M,AB,,Juniors,65.68,66,150,162.5,170,170,95,102.5,110,110,170,175,195,195,475,Raw
2,Wilson Wong,SBD,M,AB,,Juniors,65.72,66,152.5,160,-165,160,95,100,-105,100,160,170,187.5,187.5,447.5,Raw
1,Zenan Kaminskas,SBD,M,AB,,Juniors,92.64,93,180,195,200,200,95,-102.5,102.5,102.5,215,235,245,245,547.5,Raw
2,Carter Bailey,SBD,M,AB,,Juniors,87.28,93,185,195,200,200,110,115,120,120,205,217.5,-227.5,217.5,537.5,Raw
3,Colin Difilippo,SBD,M,AB,,Juniors,88.41,93,145,147.5,-185,147.5,95,105,-112.5,105,162.5,172.5,187.5,187.5,440,Raw
1,Cole Mcinnes,SBD,M,AB,,Open,65.38,66,155,162.5,172.5,172.5,105,115,122.5,122.5,-185,185,200,200,495,Raw
2,Harold Caballero,SBD,M,AB,,Open,62.84,66,155,165,172.5,172.5,87.5,-92.5,-92.5,87.5,165,175,185,185,445,Raw
1,David Nicholson,SBD,M,AB,,Open,73.31,74,165,-180,185,185,105,110,-115,110,182.5,192.5,202.5,202.5,497.5,Raw
2,Kristofer Linares,SBD,M,AB,,Open,72.83,74,160,-170,-172.5,160,115,120,122.5,122.5,160,185,-205,185,467.5,Raw
1,Connor Holmes,SBD,M,AB,,Open,74.9,83,180,210,220,220,120,-140,140,140,180,220,-227.5,220,580,Raw
1,Michael Mee,SBD,M,AB,,Masters 2,90.86,93,150,160,-170,160,-97.5,100,105,105,182.5,195,205,205,470,Raw
1,Olivia Hudey,SBD,F,AB,,Sub-Juniors,64.97,69,120,127.5,135,135,65,70,-75,70,140,147.5,155,155,360,Raw
2,Dannielle Gatchalian,SBD,F,AB,,Sub-Juniors,66.64,69,92.5,100,105,105,45,50,-52.5,50,112.5,120,125,125,280,Raw
1,Meagan Dashkin,SBD,F,AB,,Juniors,62.02,63,-102.5,107.5,112.5,112.5,47.5,52.5,-55,52.5,120,127.5,135,135,300,Raw
2,Ashley Wallace,SBD,F,AB,,Juniors,62.67,63,92.5,100,105,105,50,55,-57.5,55,107.5,115,120,120,280,Raw
1,Kaitlyn Budgen,SBD,F,AB,,Juniors,65.2,69,115,122.5,-125,122.5,47.5,50,-55,50,120,125,130,130,302.5,Raw
1,Diana Jimenez,SBD,F,AB,,Open,62.92,63,85,92.5,-97.5,92.5,45,50,-52.5,50,105,117.5,127.5,127.5,270,Raw
1,Zrinna Mallock,SBD,F,AB,,Open,111.01,84+,142.5,147.5,152.5,152.5,65,67.5,-70,67.5,130,145,155,155,375,Raw
1,Leah Fanning,SBD,F,AB,,Open,67.43,69,102.5,110,130,130,65,70,-75,70,150,165,175,175,375,Raw
2,Alesha Steinke,SBD,F,AB,,Open,63.82,69,125,127.5,137.5,137.5,-65,70,-72.5,70,145,155,-165,155,362.5,Raw
3,Vannessa Cates,SBD,F,AB,,Open,64.64,69,80,92.5,-97.5,92.5,50,55,-57.5,55,105,117.5,120,120,267.5,Raw
4,Jinal Kothari,SBD,F,AB,,Open,64.88,69,77.5,85,-92.5,85,55,60,62.5,62.5,90,100,-112.5,100,247.5,Raw
1,Nicole Boucher,SBD,F,AB,,Open,75.44,76,130,-137.5,137.5,137.5,55,-57.5,57.5,57.5,127.5,137.5,142.5,142.5,337.5,Raw
2,Sophie Restauro,SBD,F,AB,,Open,72.22,76,-77.5,-82.5,87.5,87.5,45,50,55,55,90,97.5,105,105,247.5,Raw
1,Elyse Morton,SBD,F,AB,,Masters 1,88.81,84+,-85,85,92.5,92.5,55,-60,-60,55,95,100,105,105,252.5,Raw
1,Yasser Ibrahiem,SBD,M,AB,,Sub-Juniors,104.45,105,165,177.5,-185,177.5,102.5,107.5,-112.5,107.5,195,207.5,212.5,212.5,497.5,Raw
2,Aaron Myles,SBD,M,AB,,Sub-Juniors,97.46,105,147.5,152.5,157.5,157.5,85,-90,-90,85,157.5,165,-172.5,165,407.5,Raw
1,Juan Carlo Torneros,SBD,M,AB,,Juniors,73.37,74,157.5,165,172.5,172.5,80,87.5,-92.5,87.5,150,-165,-165,150,410,Raw
1,Eric Nielsen,SBD,M,AB,,Juniors,82.82,83,200,215,-227.5,215,135,-145,157.5,157.5,220,240,257.5,257.5,630,Raw
2,Arvin Le,SBD,M,AB,,Juniors,82.19,83,172.5,185,192.5,192.5,105,112.5,-115,112.5,195,207.5,-215,207.5,512.5,Raw
3,Henry Clark,SBD,M,AB,,Juniors,78.03,83,-165,175,182.5,182.5,110,117.5,-122.5,117.5,172.5,190,-207.5,190,490,Raw
4,Kingsley Zhong,SBD,M,AB,,Juniors,82.03,83,160,167.5,175,175,92.5,100,102.5,102.5,177.5,185,192.5,192.5,470,Raw
5,Leo Jenkins,SBD,M,AB,,Juniors,82.06,83,147.5,152.5,160,160,95,97.5,100,100,172.5,175,182.5,182.5,442.5,Raw
1,Damisi Latilo,SBD,M,AB,,Juniors,87.53,93,-120,135,160,160,100,110,117.5,117.5,100,115,125,125,402.5,Raw
1,Sander Sampson,SBD,M,AB,,Juniors,98.19,105,205,225,235,235,-130,140,-145,140,240,255,265,265,640,Raw
2,Mason Johanson,SBD,M,AB,,Juniors,101.11,105,210,222.5,225,225,135,-150,-150,135,217.5,240,250,250,610,Raw
3,Almeo Sy,SBD,M,AB,,Juniors,101.69,105,215,227.5,235,235,110,115,117.5,117.5,212.5,220,-225,220,572.5,Raw
4,Dustin Petersen,SBD,M,AB,,Juniors,102.71,105,145,157.5,170,170,100,107.5,-115,107.5,165,185,-200,185,462.5,Raw
1,Tristan Costoy,SBD,M,AB,,Juniors,112.05,120,210,212.5,225,225,125,135,145,145,-230,245,-260,245,615,Raw
2,Joshua Manuel,SBD,M,AB,,Open,81.19,83,185,192.5,197.5,197.5,117.5,-125,125,125,200,212.5,225,225,547.5,Raw
3,Justin Ganser,SBD,M,AB,,Open,81.64,83,165,170,175,175,125,-130,-130,125,225,232.5,237.5,237.5,537.5,Raw
4,Scott Prochnau,SBD,M,AB,,Open,81.75,83,170,180,-187.5,180,107.5,112.5,-117.5,112.5,210,220,-230,220,512.5,Raw
5,John Roxas,SBD,M,AB,,Open,79.24,83,160,175,180,180,107.5,115,-120,115,185,200,212.5,212.5,507.5,Raw
6,Wes Bowie,SBD,M,AB,,Open,81.43,83,175,-187.5,-187.5,175,120,127.5,-132.5,127.5,190,-222.5,-222.5,190,492.5,Raw
1,Diego Salazar Valencia,SBD,M,AB,,Open,91.8,93,160,175,185,185,110,115,120,120,225,235,252.5,252.5,557.5,Raw
2,Willie Wong #2,SBD,M,AB,,Open,86.1,93,195,210,217.5,217.5,110,117.5,120,120,205,-220,-220,205,542.5,Raw
3,Roald Palaya,SBD,M,AB,,Open,92.88,93,210,-217.5,-217.5,210,107.5,115,-117.5,115,205,215,-232.5,215,540,Raw
4,Vernon Luke Llave,SBD,M,AB,,Open,88.59,93,145,155,160,160,97.5,102.5,-107.5,102.5,190,-200,200,200,462.5,Raw
1,Joseph Roe,SBD,M,AB,,Open,102.92,105,220,235,-252.5,235,125,130,135,135,250,270,290,290,660,Raw
2,John Emmanuel Rebuldela,SBD,M,AB,,Open,102.85,105,200,212.5,-220,212.5,142.5,150,155,155,250,265,272.5,272.5,640,Raw
1,Felix Rashleigh,SBD,M,AB,,Open,115,120,205,222.5,-232.5,222.5,135,145,150,150,-235,235,-237.5,235,607.5,Raw
1,Ajaypal Singh Ghumman,SBD,M,AB,,Open,136.48,120+,305,320,-332.5,320,165,175,182.5,182.5,260,275,285,285,787.5,Raw
1,Curtis Linton,SBD,M,AB,,Masters 2,123.39,120+,150,165,177.5,177.5,105,115,-122.5,115,175,195,197.5,197.5,490,Raw
