Division,WeightClassKg,Place,Name,Team,BodyweightKg,Best3SquatKg,Best3BenchKg,Best3DeadliftKg,TotalKg,Equipment,Event,Sex,BirthDate
Boys,51.71,1,Angel Olvera,Wolfe City,45.68,88.45,61.23,108.86,258.55,Unlimited,SBD,M,
Boys,51.71,DQ,Zailyn Butler,Sherman,51.62,149.69,79.38,,,Unlimited,SBD,M,
Boys,55.79,1,Ryan Dearmond,Tom Bean,53.66,154.22,83.91,147.42,385.55,Unlimited,SBD,M,
Boys,55.79,2,Austin Caldwell,Collinsville,54.75,120.2,81.65,145.15,347,Unlimited,SBD,M,
Boys,55.79,3,Cole Julian,Commerce,55.66,113.4,70.31,131.54,315.25,Unlimited,SBD,M,
Boys,55.79,4,Jayce Lehde,Sadler S & S Consolidated,53.75,113.4,63.5,106.59,283.5,Unlimited,SBD,M,
Boys,59.87,1,Gabriel Rangel,Sherman,59.87,183.7,113.4,183.7,480.81,Unlimited,SBD,M,
Boys,59.87,2,Rafael Chavez,Gainesville,59.65,156.49,120.2,158.76,435.45,Unlimited,SBD,M,
Boys,59.87,3,Chris Ramirez,Commerce,59.83,161.03,70.31,147.42,378.75,Unlimited,SBD,M,
Boys,59.87,DQ,Daniel Ruiz,Tom Bean,59.38,156.49,83.91,192.78,,Unlimited,SBD,M,
Boys,67.13,1,Angelo Yeck,Prosper,67.13,192.78,142.88,185.97,521.63,Unlimited,SBD,M,
Boys,67.13,2,Richie Eminovski,Pottsboro,66.59,176.9,122.47,185.97,485.34,Unlimited,SBD,M,
Boys,67.13,3,Austin Hash,Pottsboro,66.59,163.29,99.79,199.58,462.66,Unlimited,SBD,M,
Boys,67.13,4,Luke Wymer,Leonard,67.04,179.17,102.06,158.76,439.98,Unlimited,SBD,M,
Boys,67.13,5,Cannon Miller,Wolfe City,63.68,163.29,97.52,161.03,421.84,Unlimited,SBD,M,
Boys,67.13,6,Miguel Castillo,Gainesville,66.59,142.88,102.06,163.29,408.23,Unlimited,SBD,M,
Boys,67.13,7,Maddox Underwood,Leonard,66.86,140.61,81.65,145.15,367.41,Unlimited,SBD,M,
Boys,67.13,8,Tim Grindstaff,Collinsville,65.68,117.93,81.65,149.69,349.27,Unlimited,SBD,M,
Boys,67.13,9,Justis Foster,Leonard,66.72,129.27,83.91,136.08,349.27,Unlimited,SBD,M,
Boys,67.13,10,Izak Tumey,Tom Bean,65.59,115.67,74.84,151.95,342.46,Unlimited,SBD,M,
Boys,67.13,11,Fernando Perez,Collinsville,60.24,106.59,81.65,136.08,324.32,Unlimited,SBD,M,
Boys,67.13,12,Edward Bush,Bells,65.05,111.13,68.04,133.81,312.98,Unlimited,SBD,M,
Boys,74.84,1,Alex Pena,Sherman,73.98,224.53,136.08,229.06,589.67,Unlimited,SBD,M,
Boys,74.84,2,Angel Solarazano,Sherman,74.3,201.85,133.81,215.46,551.11,Unlimited,SBD,M,
Boys,74.84,3,Remingten Wyatt,Leonard,72.21,197.31,127.01,197.31,521.63,Unlimited,SBD,M,
Boys,74.84,4,Fahd Allan,Prosper,74.84,183.7,120.2,195.04,498.95,Unlimited,SBD,M,
Boys,74.84,5,Jaxon Brown,Bells,72.21,183.7,127.01,185.97,496.68,Unlimited,SBD,M,
Boys,74.84,6,Bryce Pieper,Howe,74.75,183.7,129.27,174.63,487.61,Unlimited,SBD,M,
Boys,74.84,7,Leonardo Anguiano,Prosper,71.17,199.58,106.59,176.9,483.08,Unlimited,SBD,M,
Boys,74.84,8,Kyle Foster,Commerce,73.3,185.97,102.06,188.24,476.27,Unlimited,SBD,M,
Boys,74.84,9,Chris Torres,Howe,74.3,197.31,102.06,176.9,476.27,Unlimited,SBD,M,
Boys,74.84,10,George Light,Collinsville,74.75,161.03,127.01,185.97,474,Unlimited,SBD,M,
Boys,74.84,11,Justin Petty,Sadler S & S Consolidated,71.17,172.37,90.72,183.7,446.79,Unlimited,SBD,M,
Boys,74.84,12,Jacob Navarro,Wolfe City,72.12,179.17,77.11,174.63,430.91,Unlimited,SBD,M,
Boys,74.84,13,Jayden Vega,Sadler S & S Consolidated,67.72,136.08,92.99,142.88,371.95,Unlimited,SBD,M,
Boys,74.84,14,Landon Frueham,Anna,73.12,136.08,79.38,154.22,369.68,Unlimited,SBD,M,
Boys,74.84,15,Charles Fuhr,Howe,70.17,138.35,83.91,140.61,362.87,Unlimited,SBD,M,
Boys,74.84,16,Raul Olvera,Gainesville,72.3,136.08,90.72,136.08,362.87,Unlimited,SBD,M,
Boys,74.84,17,Aydn Welsh,Sherman,69.35,106.59,90.72,124.74,322.05,Unlimited,SBD,M,
Boys,82.1,1,Colby Ray Short,Sherman,79.74,242.67,170.1,226.8,639.57,Unlimited,SBD,M,
Boys,82.1,2,Jose Monroy,Sherman,79.74,204.12,158.76,192.78,555.65,Unlimited,SBD,M,
Boys,82.1,3,Carter Heinold,Prosper,77.34,190.51,131.54,197.31,519.36,Unlimited,SBD,M,
Boys,82.1,4,Luke Horning,Denison,80.83,192.78,124.74,199.58,517.1,Unlimited,SBD,M,
Boys,82.1,5,Brandon Palmer,Denison,81.1,185.97,122.47,185.97,494.42,Unlimited,SBD,M,
Boys,82.1,6,Oliver Kincannon,Denison,77.47,174.63,122.47,170.1,467.2,Unlimited,SBD,M,
Boys,82.1,7,James Cowart,Howe,79.38,165.56,115.67,170.1,451.32,Unlimited,SBD,M,
Boys,82.1,8,Warren Richardson,Wolfe City,79.33,165.56,108.86,163.29,437.72,Unlimited,SBD,M,
Boys,82.1,9,Alex Blasengame,Howe,80.01,158.76,104.33,170.1,433.18,Unlimited,SBD,M,
Boys,82.1,10,Parker Bryan,Howe,76.11,142.88,104.33,167.83,415.04,Unlimited,SBD,M,
Boys,82.1,11,Jayden Jackson,Sherman Texoma Christian School,80.69,154.22,102.06,142.88,399.16,Unlimited,SBD,M,
Boys,82.1,12,Cooper Adams,Anna,81.78,138.35,77.11,151.95,367.41,Unlimited,SBD,M,
Boys,82.1,13,Zane Young,Tom Bean,81.6,122.47,70.31,156.49,349.27,Unlimited,SBD,M,
Boys,82.1,14,Antonio Nava,Gainesville,77.75,124.74,70.31,136.08,331.12,Unlimited,SBD,M,
Boys,89.81,1,Joe Gionfriddo,Sherman,89.63,222.26,174.63,238.14,635.03,Unlimited,SBD,M,
Boys,89.81,2,Austin Crawley,Denison,87,215.46,151.95,215.46,582.87,Unlimited,SBD,M,
Boys,89.81,3,Hector Rincon,Anna,88.9,215.46,154.22,213.19,582.87,Unlimited,SBD,M,
Boys,89.81,4,Jack Nichols,Commerce,88.72,201.85,127.01,204.12,532.97,Unlimited,SBD,M,
Boys,89.81,5,Alan Bustos,Gainesville,89.63,204.12,113.4,206.38,523.9,Unlimited,SBD,M,
Boys,89.81,6,Mahlon Walker,Howe,88.99,174.63,133.81,185.97,494.42,Unlimited,SBD,M,
Boys,89.81,7,Parker Wilcox,Commerce,83.55,174.63,102.06,206.38,483.08,Unlimited,SBD,M,
Boys,89.81,8,Ayden Daugherty,Leonard,89.81,174.63,122.47,176.9,474,Unlimited,SBD,M,
Boys,89.81,9,Brian Avitud,Gainesville,84.23,183.7,86.18,183.7,453.59,Unlimited,SBD,M,
Boys,89.81,10,Brian White,Howe,86.27,151.95,92.99,158.76,403.7,Unlimited,SBD,M,
Boys,89.81,11,Brody Gardner,Wolfe City,85.14,154.22,99.79,145.15,399.16,Unlimited,SBD,M,
Boys,89.81,DQ,Hd Davis,Wolfe City,85.59,,,,,Unlimited,SBD,M,
Boys,89.81,DQ,Landry Spivey,Collinsville,85.18,179.17,111.13,,,Unlimited,SBD,M,
Boys,89.81,DQ,Bryson Wyatt,Pottsboro,84.32,167.83,,,,Unlimited,SBD,M,
Boys,89.81,DQ,Jordan Keller,Pottsboro,89.13,226.8,,,,Unlimited,SBD,M,
Boys,99.79,1,Braylin Garcia,Leonard,98.43,256.28,201.85,219.99,678.12,Unlimited,SBD,M,
Boys,99.79,2,Abram Ramirez,Sherman,98.11,247.21,165.56,242.67,655.44,Unlimited,SBD,M,
Boys,99.79,3,Maliek Harris,Leonard,96.39,249.48,163.29,222.26,635.03,Unlimited,SBD,M,
Boys,99.79,4,Markease Aubrey,Commerce,99.7,231.33,145.15,210.92,587.4,Unlimited,SBD,M,
Boys,99.79,5,Gabe McMillen,Denison,92.85,229.06,142.88,204.12,576.06,Unlimited,SBD,M,
Boys,99.79,6,Carlos Serrano,Commerce,95.62,208.65,151.95,204.12,564.72,Unlimited,SBD,M,
Boys,99.79,7,John Rincon,Gainesville,96.34,217.72,138.35,183.7,539.77,Unlimited,SBD,M,
Boys,99.79,8,Gage Sanders,Wolfe City,98.57,204.12,115.67,204.12,523.9,Unlimited,SBD,M,
Boys,99.79,9,Charles Turner,Howe,94.76,217.72,115.67,179.17,512.56,Unlimited,SBD,M,
Boys,99.79,10,Parker Ringger,Sadler S & S Consolidated,99.7,192.78,122.47,167.83,483.08,Unlimited,SBD,M,
Boys,99.79,11,Aiden Samples,Wolfe City,92.49,183.7,102.06,167.83,453.59,Unlimited,SBD,M,
Boys,99.79,12,Jimarius Brown,Denison,94.76,158.76,92.99,124.74,376.48,Unlimited,SBD,M,
Boys,99.79,13,Asher Williams,Bells,98.43,136.08,74.84,142.88,353.8,Unlimited,SBD,M,
Boys,99.79,14,Lane Castruita,Gainesville,99.74,115.67,65.77,136.08,317.51,Unlimited,SBD,M,
Boys,99.79,15,James Gentry,Leonard,98.7,111.13,83.91,113.4,308.44,Unlimited,SBD,M,
Boys,99.79,16,Robert Bikar,Gainesville,95.84,61.23,52.16,102.06,215.46,Unlimited,SBD,M,
Boys,99.79,DQ,Xavier Babb,Sherman,94.08,226.8,,,,Unlimited,SBD,M,
Boys,109.77,1,Cooper Duce,Denison,109.36,254.01,215.46,238.14,707.6,Unlimited,SBD,M,
Boys,109.77,2,Jason Boyd,Bells,108.09,272.16,142.88,204.12,619.15,Unlimited,SBD,M,
Boys,109.77,3,Jadden Coleman,Commerce,106.5,222.26,149.69,215.46,587.4,Unlimited,SBD,M,
Boys,109.77,4,Houston Beebe,Leonard,104.42,231.33,156.49,195.04,582.87,Unlimited,SBD,M,
Boys,109.77,5,Saxon Niese,Prosper,107.82,183.7,156.49,192.78,532.97,Unlimited,SBD,M,
Boys,109.77,6,Carson Thompson,Leonard,106.73,201.85,140.61,181.44,523.9,Unlimited,SBD,M,
Boys,109.77,7,Chance Cranford,Commerce,102.69,206.38,115.67,179.17,501.22,Unlimited,SBD,M,
Boys,109.77,8,Payton Evans,Tom Bean,102.83,133.81,88.45,145.15,367.41,Unlimited,SBD,M,
Boys,109.77,9,Jesse Neal,Bells,106.1,117.93,83.91,131.54,333.39,Unlimited,SBD,M,
Boys,109.77,DQ,Robert Malone,Commerce,108,222.26,,,,Unlimited,SBD,M,
Boys,124.74,1,Caleb Cox,Denison,112.22,272.16,174.63,233.6,680.39,Unlimited,SBD,M,
Boys,124.74,2,Nate Kumler,Sherman,112.81,235.87,183.7,197.31,616.89,Unlimited,SBD,M,
Boys,124.74,3,McKay Young,Tom Bean,112.85,215.46,151.95,231.33,598.74,Unlimited,SBD,M,
Boys,124.74,4,Ethan McNeary,Anna,119.39,219.99,133.81,226.8,580.6,Unlimited,SBD,M,
Boys,124.74,5,Michael Wiemer,Howe,110.59,206.38,158.76,190.51,555.65,Unlimited,SBD,M,
Boys,124.74,6,Alex Puentes,Wolfe City,115.8,226.8,142.88,185.97,555.65,Unlimited,SBD,M,
Boys,124.74,7,Jase Williams,Wolfe City,123.29,199.58,127.01,210.92,537.51,Unlimited,SBD,M,
Boys,124.74,8,Jacori Hearn,Commerce,124.1,197.31,115.67,179.17,492.15,Unlimited,SBD,M,
Boys,124.74,9,Cody Killgo,Wolfe City,122.56,185.97,131.54,172.37,489.88,Unlimited,SBD,M,
Boys,124.74,10,Josh Riddle,Commerce,111.77,190.51,108.86,167.83,467.2,Unlimited,SBD,M,
Boys,124.74,11,Gage Owens,Howe,110.18,151.95,129.27,183.7,464.93,Unlimited,SBD,M,
Boys,124.74,12,Taylor Phillips #2,Dodd City,115.71,142.88,95.25,163.29,401.43,Unlimited,SBD,M,
Boys,124.74,DQ,Caleb Akins,Denison,116.8,226.8,,,,Unlimited,SBD,M,
Boys,124.74,DQ,Diego Hernandez,Gainesville,116.03,249.48,176.9,183.7,,Unlimited,SBD,M,
Boys,139.71,1,Nathan Orrick,Denison,138.89,272.16,226.8,256.28,755.23,Unlimited,SBD,M,
Boys,139.71,2,Nathan Woods,Denison,137.85,272.16,181.44,226.8,680.39,Unlimited,SBD,M,
Boys,139.71,3,Seth Riddle,Commerce,131.54,247.21,170.1,240.4,657.71,Unlimited,SBD,M,
Boys,139.71,4,Noah Roten,Denison,137.12,249.48,195.04,206.38,650.91,Unlimited,SBD,M,
Boys,139.71,5,Jason Reyes,Gainesville,133.81,238.14,154.22,206.38,598.74,Unlimited,SBD,M,
Boys,139.71,6,Caynen Ingram,Dodd City,129.32,131.54,74.84,133.81,340.19,Unlimited,SBD,M,
Boys,139.71+,1,Levi Ullah,Sherman,149.32,229.06,199.58,208.65,637.3,Unlimited,SBD,M,
Boys,139.71+,2,Carson Culp,Pottsboro,168.46,281.23,151.95,183.7,616.89,Unlimited,SBD,M,
Boys,139.71+,3,Derek Cervantes,Pottsboro,149.82,240.4,151.95,183.7,576.06,Unlimited,SBD,M,
Boys,139.71+,4,Braxton Armstrong,Leonard,165.11,222.26,158.76,195.04,576.06,Unlimited,SBD,M,
Boys,139.71+,5,Byron Coldicott,Pottsboro,144.88,163.29,104.33,163.29,430.91,Unlimited,SBD,M,
