Division,WeightClassKg,Place,Name,Team,BodyweightKg,Best3SquatKg,Best3BenchKg,Best3DeadliftKg,TotalKg,Equipment,Event,Sex
Boys,51.71,1,Dylan Elkins,Needville,51.62,140.61,97.52,138.35,376.48,Single-ply,SBD,M
Boys,51.71,2,Alfred Aparicio,Palacios,50.71,92.99,56.7,104.33,254.01,Single-ply,SBD,M
Boys,55.79,1,Michael Latapie,Palacios,52.53,136.08,99.79,142.88,378.75,Single-ply,SBD,M
Boys,55.79,2,Jacob Ryder,Needville,55.61,102.06,63.5,122.47,288.03,Single-ply,SBD,M
Boys,55.79,3,Hunter Shoppa,East Bernard,54.57,92.99,63.5,113.4,269.89,Single-ply,SBD,M
Boys,55.79,4,Marco Zamora,Palacios,54.02,86.18,49.9,115.67,251.74,Single-ply,SBD,M
Boys,59.87,1,Cory Neptune,Needville,59.69,154.22,104.33,154.22,412.77,Single-ply,SBD,M
Boys,59.87,2,Craigan Colunga,Needville,58.06,124.74,90.72,158.76,374.21,Single-ply,SBD,M
Boys,67.13,3,John Tran,Palacios,59.96,86.18,61.23,136.08,283.5,Single-ply,SBD,M
Boys,59.87,4,Tyler Kurtz,East Bernard,57.88,90.72,65.77,102.06,258.55,Single-ply,SBD,M
Boys,59.87,5,Michael Hernandez #6,East Bernard,57.42,102.06,58.97,,161.03,Single-ply,SB,M
Boys,67.13,1,Tanner Surratt,Louise,67.09,183.7,111.13,204.12,498.95,Single-ply,SBD,M
Boys,67.13,2,Jose Jimenez #11,Palacios,64.91,167.83,108.86,179.17,455.86,Single-ply,SBD,M
Boys,74.84,3,Brendan Lopez,Palacios,67.27,158.76,90.72,176.9,426.38,Single-ply,SBD,M
Boys,67.13,4,Eric Sanchez,Wallis Brazos,67.09,147.42,86.18,165.56,399.16,Single-ply,SBD,M
Boys,67.13,5,Noah Seaman,Palacios,66.77,140.61,74.84,167.83,383.29,Single-ply,SBD,M
Boys,67.13,6,Josh Mora,Wallis Brazos,64.95,138.35,83.91,149.69,371.95,Single-ply,SBD,M
Boys,67.13,7,Aaron Guzmon,Needville,62.87,156.49,56.7,156.49,369.68,Single-ply,SBD,M
Boys,67.13,8,Jerry Carrascoza,El Campo,66.36,115.67,90.72,129.27,335.66,Single-ply,SBD,M
Boys,67.13,9,Aaron Morton,Palacios,63.41,81.65,43.09,129.27,254.01,Single-ply,SBD,M
Boys,67.13,DQ,Jacob Blazek,East Bernard,63.05,106.59,,,,Single-ply,SBD,M
Boys,74.84,1,Matthew Nguyen,Palacios,69.99,181.44,97.52,213.19,492.15,Single-ply,SBD,M
Boys,82.1,2,Jontrey Goff,East Bernard,74.98,181.44,92.99,183.7,458.13,Single-ply,SBD,M
Boys,74.84,3,Logan Henslee,Louise,72.85,151.95,117.93,167.83,437.72,Single-ply,SBD,M
Boys,74.84,4,Abraham Montes,El Campo,68.99,129.27,106.59,140.61,376.48,Single-ply,SBD,M
Boys,74.84,5,Cedric Perkins,East Bernard,69.49,124.74,61.23,158.76,344.73,Single-ply,SBD,M
Boys,74.84,6,Jack Delmar,East Bernard,70.9,124.74,74.84,140.61,340.19,Single-ply,SBD,M
Boys,74.84,7,Andrew Kubena,East Bernard,71.58,111.13,65.77,142.88,319.78,Single-ply,SBD,M
Boys,74.84,8,Barrett Janecek,East Bernard,72.44,83.91,54.43,102.06,240.4,Single-ply,SBD,M
Boys,82.1,1,Greg Sexton,Palacios,80.6,213.19,115.67,231.33,560.19,Single-ply,SBD,M
Boys,82.1,2,Rj Denson,Needville,75.39,195.04,122.47,226.8,544.31,Single-ply,SBD,M
Boys,82.1,3,Thomas Aguilar,Wallis Brazos,82.05,165.56,108.86,174.63,449.06,Single-ply,SBD,M
Boys,82.1,4,Cesar Garcia,East Bernard,78.7,158.76,81.65,181.44,421.84,Single-ply,SBD,M
Boys,82.1,5,Zeke Tsika,El Campo,79.61,120.2,102.06,156.49,378.75,Single-ply,SBD,M
Boys,82.1,DQ,Nathan Tovar,East Bernard,78.61,129.27,,,,Single-ply,SBD,M
Boys,89.81,1,Juan Escamilla,Needville,89.18,210.92,154.22,215.46,580.6,Single-ply,SBD,M
Boys,89.81,2,Stephen Zwahr,Needville,87.27,181.44,108.86,213.19,503.49,Single-ply,SBD,M
Boys,89.81,3,Aaron Kieler,East Bernard,85.37,129.27,68.04,127.01,324.32,Single-ply,SBD,M
Boys,99.79,1,Alex Tamez,Louise,95.48,242.67,122.47,199.58,564.72,Single-ply,SBD,M
Boys,99.79,2,Cole Mund,Needville,93.03,192.78,106.59,195.04,494.42,Single-ply,SBD,M
Boys,99.79,3,Aric Matura,East Bernard,92.22,190.51,120.2,181.44,492.15,Single-ply,SBD,M
Boys,99.79,DQ,Jordan Darr,East Bernard,91.26,174.63,,,,Single-ply,SBD,M
Boys,99.79,DQ,Shane Brumbelow,Needville,95.53,170.1,127.01,,,Single-ply,SBD,M
Boys,109.77,1,Adam Aucoin,Palacios,101.92,278.96,156.49,229.06,664.51,Single-ply,SBD,M
Boys,109.77,2,Michael Garcia #11,Palacios,106,229.06,142.88,226.8,598.74,Single-ply,SBD,M
Boys,109.77,3,Colin Dusek,East Bernard,103.06,158.76,83.91,170.1,412.77,Single-ply,SBD,M
Boys,124.74,1,Alex Ramirez,Needville,117.66,215.46,147.42,201.85,564.72,Single-ply,SBD,M
Boys,124.74,2,Coleman Jan,Needville,120.61,199.58,106.59,192.78,498.95,Single-ply,SBD,M
Boys,124.74+,1,Kenny Sifuentes,El Campo,132.68,233.6,158.76,215.46,607.81,Single-ply,SBD,M
Boys,124.74+,2,Jordan Chenier,Needville,136.85,170.1,127.01,204.12,501.22,Single-ply,SBD,M
Boys,124.74+,3,Robert Kubena,East Bernard,128.23,86.18,56.7,,142.88,Single-ply,SB,M
Boys,124.74+,DQ,Blake Herman,Needville,126.28,174.63,,183.7,,Single-ply,SBD,M
