Division,WeightClassKg,Place,Name,Team,BodyweightKg,Best3SquatKg,Best3BenchKg,Best3DeadliftKg,TotalKg,Equipment,Event,Sex
Boys,55.79,1,Jermaine Mendiola,Somerset,51.89,167.83,79.38,165.56,412.77,Single-ply,SBD,M
Boys,51.71,2,Josh Estrada,Gonzales,51.26,154.22,92.99,163.29,410.5,Single-ply,SBD,M
Boys,51.71,3,Paul Arocha,Devine,51.07,151.95,86.18,151.95,390.09,Single-ply,SBD,M
Boys,51.71,4,Angel Bermudez,Poteet,49.53,142.88,90.72,142.88,376.48,Single-ply,SBD,M
Boys,51.71,5,Pete Olivarez,Orange Grove,49.9,149.69,83.91,136.08,369.68,Single-ply,SBD,M
Boys,51.71,6,Isaiah Lucio,Pearsall,51.07,113.4,83.91,133.81,331.12,Single-ply,SBD,M
Boys,51.71,7,Justin Gutierrez,Crystal City,49.9,117.93,61.23,145.15,324.32,Single-ply,SBD,M
Boys,51.71,8,Max Laguna,Kingsville King,50.08,106.59,63.5,149.69,319.78,Single-ply,SBD,M
Boys,51.71,9,Brian Villarreal,Geronimo Navarro,45.45,115.67,58.97,117.93,292.57,Single-ply,SBD,M
Boys,55.79,1,Jerry Lopez,Port Isabel,54.16,201.85,108.86,185.97,496.68,Single-ply,SBD,M
Boys,55.79,2,Ricky Guerra,Poteet,54.34,176.9,113.4,195.04,485.34,Single-ply,SBD,M
Boys,55.79,3,Daniel Porras,Orange Grove,54.43,165.56,88.45,181.44,435.45,Single-ply,SBD,M
Boys,59.87,4,Miguel Sandoval,Kingsville King,56.02,156.49,90.72,174.63,421.84,Single-ply,SBD,M
Boys,55.79,5,Ralph Zapata,Rio Hondo,54.07,161.03,90.72,151.95,403.7,Single-ply,SBD,M
Boys,59.87,6,Troy Ogg,La Grange,55.97,151.95,90.72,151.95,394.63,Single-ply,SBD,M
Boys,55.79,7,Alfaro Ariel,Rockport-Fulton,54.43,158.76,81.65,151.95,392.36,Single-ply,SBD,M
Boys,55.79,8,Matthew Madrano,Pearsall,55.25,151.95,68.04,170.1,390.09,Single-ply,SBD,M
Boys,55.79,9,Jm Elizondo,Pearsall,54.34,145.15,79.38,156.49,381.02,Single-ply,SBD,M
Boys,55.79,DQ,Randy Mancha,Crystal City,55.34,136.08,79.38,,,Single-ply,SBD,M
Boys,59.87,1,Sawyer Yandell,Devine,59.78,222.26,111.13,213.19,546.58,Single-ply,SBD,M
Boys,59.87,2,Steffan Brown,Columbus,58.79,181.44,108.86,199.58,489.88,Single-ply,SBD,M
Boys,59.87,3,Rudy Martinez,Carrizo Springs,59.42,176.9,95.25,192.78,464.93,Single-ply,SBD,M
Boys,59.87,4,Alan Alfaro,Rio Hondo,59.42,172.37,88.45,192.78,453.59,Single-ply,SBD,M
Boys,59.87,5,Lane Faust,Yoakum,58.51,161.03,106.59,167.83,435.45,Single-ply,SBD,M
Boys,59.87,6,Heliseo Guerreo,Rio Hondo,59.69,156.49,97.52,172.37,426.38,Single-ply,SBD,M
Boys,59.87,7,Tyler Wells,Gonzales,59.33,163.29,83.91,158.76,405.97,Single-ply,SBD,M
Boys,67.13,8,Landon Camacho,Pleasanton,59.96,158.76,88.45,136.08,383.29,Single-ply,SBD,M
Boys,67.13,9,Oscar de Leon,Somerset,59.96,145.15,81.65,154.22,381.02,Single-ply,SBD,M
Boys,67.13,DQ,Andre Wilson,Kingsville King,60.01,167.83,,,,Single-ply,SBD,M
Boys,67.13,1,Zachary Ornelas,Pearsall,66.13,204.12,92.99,217.72,514.83,Single-ply,SBD,M
Boys,67.13,2,Blake McCraken,Yoakum,66.13,204.12,97.52,210.92,512.56,Single-ply,SBD,M
Boys,67.13,3,Jesse Leyva,Raymondville,66.13,201.85,102.06,206.38,510.29,Single-ply,SBD,M
Boys,67.13,4,James Zaragoza,Raymondville,62.41,192.78,104.33,201.85,498.95,Single-ply,SBD,M
Boys,74.84,5,Evan DeLeon,Geronimo Navarro,67.22,183.7,113.4,201.85,498.95,Single-ply,SBD,M
Boys,67.13,6,Julio Rodriguez,Raymondville,63.68,185.97,104.33,195.04,485.34,Single-ply,SBD,M
Boys,67.13,7,Marco Garate,Rio Hondo,65.68,170.1,111.13,199.58,480.81,Single-ply,SBD,M
Boys,67.13,8,Josh Ramos,Somerset,66.68,195.04,92.99,183.7,471.74,Single-ply,SBD,M
Boys,67.13,9,Andrew Esquivel,Carrizo Springs,64.23,165.56,97.52,195.04,458.13,Single-ply,SBD,M
Boys,67.13,DQ,Jess Rutledge,Carrizo Springs,63.23,,,,,Single-ply,SBD,M
Boys,74.84,1,Leonard Ramirez,Raymondville,74.03,249.48,165.56,229.06,644.1,Single-ply,SBD,M
Boys,74.84,2,Jerry Alaniz,La Feria,73.3,249.48,145.15,231.33,625.96,Single-ply,SBD,M
Boys,74.84,3,Josue Valdez,Zapata,73.48,229.06,138.35,240.4,607.81,Single-ply,SBD,M
Boys,82.1,4,DJ Gonzales,Geronimo Navarro,75.02,226.8,117.93,217.72,562.45,Single-ply,SBD,M
Boys,74.84,5,Franky Valle,Hidalgo Early College,73.57,226.8,136.08,195.04,557.92,Single-ply,SBD,M
Boys,74.84,6,John Valdez,Somerset,73.3,222.26,133.81,197.31,553.38,Single-ply,SBD,M
Boys,74.84,7,Adon Cantu,Rio Grande City Grulla,73.66,217.72,120.2,190.51,528.44,Single-ply,SBD,M
Boys,74.84,8,Ricardo Vela,Hidalgo Early College,73.94,181.44,120.2,199.58,501.22,Single-ply,SBD,M
Boys,82.1,9,David Puente,Crystal City,74.93,176.9,108.86,192.78,478.54,Single-ply,SBD,M
Boys,82.1,1,Ramon Sauceda,La Feria,81.28,258.55,163.29,249.48,671.32,Single-ply,SBD,M
Boys,82.1,2,Pedro Molina,Somerset,77.56,222.26,136.08,254.01,612.35,Single-ply,SBD,M
Boys,82.1,3,Joel Elizondo,Zapata,79.74,215.46,129.27,226.8,571.53,Single-ply,SBD,M
Boys,82.1,4,Michael Chavez,Devine,81.37,233.6,142.88,190.51,566.99,Single-ply,SBD,M
Boys,82.1,5,Thomas Trevino,Pleasanton,79.38,231.33,124.74,206.38,562.45,Single-ply,SBD,M
Boys,82.1,6,Aaron Villarreal,Kingsville King,80.01,226.8,120.2,213.19,560.19,Single-ply,SBD,M
Boys,82.1,7,Christopher Vinton,Pearsall,78.74,213.19,138.35,199.58,551.11,Single-ply,SBD,M
Boys,82.1,8,Jay Leal,Geronimo Navarro,79.74,192.78,113.4,233.6,539.77,Single-ply,SBD,M
Boys,82.1,9,Jaime Tellez,Gonzales,78.93,210.92,115.67,204.12,530.7,Single-ply,SBD,M
Boys,82.1,DQ,Kevin Pena,Robstown,81.37,,,,,Single-ply,SBD,M
Boys,89.81,1,Jon Ventura,Pearsall,88.27,238.14,138.35,258.55,635.03,Single-ply,SBD,M
Boys,89.81,2,Fernando Rivera #2,Port Isabel,89.36,240.4,158.76,229.06,628.23,Single-ply,SBD,M
Boys,89.81,3,Michael McGlaun,Ingleside,85.55,219.99,136.08,242.67,598.74,Single-ply,SBD,M
Boys,89.81,4,Jesus Roiz,Rio Grande City Grulla,89.18,231.33,158.76,208.65,598.74,Single-ply,SBD,M
Boys,89.81,5,Justin Quesada,Somerset,87.45,213.19,151.95,226.8,591.94,Single-ply,SBD,M
Boys,89.81,6,Chris Toenes,Bandera,86.91,201.85,131.54,219.99,553.38,Single-ply,SBD,M
Boys,89.81,7,Silverio Trejo,Pearsall,86.82,208.65,129.27,204.12,542.04,Single-ply,SBD,M
Boys,89.81,8,Alex Hernandez #16,Hidalgo Early College,89.27,183.7,120.2,217.72,521.63,Single-ply,SBD,M
Boys,89.81,DQ,Domingo Gonzalez,Rockport-Fulton,82.55,197.31,,,,Single-ply,SBD,M
Boys,89.81,DQ,Justin Perez,Corpus Christi West Oso,85.64,235.87,,,,Single-ply,SBD,M
Boys,99.79,1,Nick Trevino #2,Kingsville King,99.34,263.08,151.95,278.96,694,Single-ply,SBD,M
Boys,99.79,2,Justin Lomas,Crystal City,98.16,272.16,145.15,233.6,650.91,Single-ply,SBD,M
Boys,99.79,3,Edward Silva,Robstown,97.52,233.6,127.01,244.94,605.55,Single-ply,SBD,M
Boys,99.79,4,Connor Roe,Geronimo Navarro,96.71,226.8,154.22,208.65,589.67,Single-ply,SBD,M
Boys,99.79,5,Hay Izzy,Bandera,99.06,204.12,183.7,192.78,580.6,Single-ply,SBD,M
Boys,99.79,6,Jose Contreras,Gonzales,95.35,222.26,117.93,222.26,562.45,Single-ply,SBD,M
Boys,99.79,7,Fabian Huerta,Crystal City,93.89,206.38,113.4,208.65,528.44,Single-ply,SBD,M
Boys,99.79,DQ,Carlos Carillo,Lytle,94.35,258.55,,,,Single-ply,SBD,M
Boys,99.79,DQ,Brian Tran,Rockport-Fulton,97.52,190.51,,,,Single-ply,SBD,M
Boys,99.79,DQ,Silvestre Bustamante,Zapata,97.43,215.46,,,,Single-ply,SBD,M
Boys,109.77,1,Michael Rodriguez #4,Kingsville King,109.23,333.39,215.46,276.69,825.54,Single-ply,SBD,M
Boys,109.77,2,Sal Marines,Somerset,104.14,294.84,142.88,294.84,732.55,Single-ply,SBD,M
Boys,109.77,3,Mark Cerda,Somerset,107.95,249.48,136.08,240.4,625.96,Single-ply,SBD,M
Boys,109.77,4,Pat Rodriguez,Devine,107.5,235.87,142.88,240.4,619.15,Single-ply,SBD,M
Boys,109.77,5,Gabriel García #12,Yoakum,106.05,249.48,136.08,226.8,612.35,Single-ply,SBD,M
Boys,109.77,6,Juan Gallegos,Rio Hondo,106.23,226.8,163.29,215.46,605.55,Single-ply,SBD,M
Boys,109.77,7,Joe Cantu,Lytle,105.41,254.01,117.93,217.72,589.67,Single-ply,SBD,M
Boys,109.77,8,Darren Garcia,Crystal City,106.96,235.87,131.54,210.92,578.33,Single-ply,SBD,M
Boys,109.77,9,Michael Cervantes,Lyford,107.5,249.48,131.54,190.51,571.53,Single-ply,SBD,M
Boys,109.77,DQ,Leo Perez,Devine,102.06,244.94,,,,Single-ply,SBD,M
Boys,124.74,1,Richie Salinas,Kingsville King,123.56,285.76,215.46,254.01,755.23,Single-ply,SBD,M
Boys,124.74,2,Bobby Gonzalez,Raymondville,112.22,317.51,174.63,247.21,739.36,Single-ply,SBD,M
Boys,124.74,3,Zach Monreal,Devine,122.47,272.16,167.83,263.08,703.07,Single-ply,SBD,M
Boys,124.74,4,Kristopher Gebert,Orange Grove,124.1,267.62,165.56,226.8,659.98,Single-ply,SBD,M
Boys,124.74+,5,Gabriel Garza #1,Somerset,124.83,263.08,172.37,215.46,650.91,Single-ply,SBD,M
Boys,124.74,5,Adrian Contreras,Poteet,118.75,260.82,142.88,219.99,623.69,Single-ply,SBD,M
Boys,124.74,6,Bj Frieda,Somerset,112.22,260.82,136.08,206.38,603.28,Single-ply,SBD,M
Boys,124.74,7,Michael Garza #1,Crystal City,121.93,276.69,129.27,190.51,596.47,Single-ply,SBD,M
Boys,124.74,DQ,Frank Moreno,Zapata,121.93,303.91,156.49,,,Single-ply,SBD,M
Boys,124.74+,1,Willie Hights,Yoakum,154.45,324.32,226.8,249.48,800.59,Single-ply,SBD,M
Boys,124.74+,2,J'Von Thomas,Cuero,132.27,297.1,165.56,231.33,694,Single-ply,SBD,M
Boys,124.74+,3,Luis Lopez #1,Kingsville King,142.43,294.84,149.69,231.33,675.85,Single-ply,SBD,M
Boys,124.74+,4,Hector Garza,Robstown,135.08,272.16,149.69,238.14,659.98,Single-ply,SBD,M
Boys,124.74+,6,John Reyes #2,Rio Hondo,139.71,272.16,165.56,213.19,650.91,Single-ply,SBD,M
Boys,124.74+,7,Andy Valladolia,Somerset,139.16,278.96,147.42,217.72,644.1,Single-ply,SBD,M
Boys,124.74+,8,Lance McDonalds,Robstown,141.07,249.48,140.61,254.01,644.1,Single-ply,SBD,M
Boys,124.74+,9,Eduardo Sanchez,Zapata,139.71,249.48,170.1,210.92,630.49,Single-ply,SBD,M
