Place,Name,Sex,Equipment,Team,Division,BodyweightKg,WeightClassKg,Squat1Kg,Squat2Kg,Squat3Kg,Best3SquatKg,Bench1Kg,Bench2Kg,Bench3Kg,Best3BenchKg,Deadlift1Kg,Deadlift2Kg,Deadlift3Kg,Best3DeadliftKg,TotalKg,Event,BirthDate
1,Yoana Panayotova,F,Single-ply,NSA,F-Sj,56.7,57,80,90,-95,90,30,-32.5,-32.5,30,80,85,-92.5,85,205,SBD,
1,Mihaela Cvetkova,F,Single-ply,Strong,F-Sj,73.7,76,145,-152.5,-152.5,145,62.5,67.5,-70,67.5,150,160,-170,160,372.5,SBD,
1,Yoana Ivanova,F,Single-ply,Jim,F-Sj,76.7,84,50,60,65,65,30,35,-40,35,70,80,-85,80,180,SBD,
1,Simona Simeonova,F,Single-ply,Strength Squad,F-Sj,86,84+,90,95,100,100,55,57.5,60,60,137.5,145,150,150,310,SBD,
1,Anika Kirilova,F,Single-ply,Strength Squad,F-Jr,61.8,63,90,100,105,105,55,57.5,60,60,-105,110,115,115,280,SBD,
1,Tanya Nedyalkova,F,Single-ply,Strength Squad,F-Jr,67.4,69,77.5,82.5,87.5,87.5,50,52.5,-55,52.5,115,120,125,125,265,SBD,
2,Iva Todorova,F,Single-ply,Strong,F-Jr,67.9,69,85,92.5,-95,92.5,-55,60,62.5,62.5,90,100,-107.5,100,255,SBD,
1,Gabriela Gospodinova,F,Single-ply,MNG,F-Jr,82.5,84,90,100,110,110,55,-62.5,-62.5,55,120,130,140,140,305,SBD,
1,Dafinka Borisova,F,Single-ply,Herkules,F-O,46.1,47,87.5,95,100,100,60,65,67.5,67.5,100,110,115,115,282.5,SBD,
1,Margarita Kirilova,F,Single-ply,Yunak Kardzhali,F-O,56.9,57,145,155,-157.5,155,92.5,95,-97.5,95,160,170,180,180,430,SBD,
2,Selin Mustafa #2,F,Single-ply,Strong,F-O,55,57,105,112.5,117.5,117.5,55,-60,-60,55,120,130,137.5,137.5,310,SBD,
3,Lora Markova,F,Single-ply,Power Deadlift,F-O,57,57,-90,90,-100,90,55,57.5,-60,57.5,115,125,135,135,282.5,SBD,
1,Radostina Lulova,F,Single-ply,Yunak Kardzhali,F-O,62.6,63,190,200,210,210,95,100,-105,100,200,207.5,215,215,525,SBD,
2,Valentina Vasileva,F,Single-ply,Power Deadlift,F-O,59.9,63,135,145,-155,145,70,75,-77.5,75,120,-140,-140,120,340,SBD,
1,Blagovesta Dardova,F,Single-ply,MNG,F-O,67.4,69,132.5,142.5,147.5,147.5,82.5,90,95,95,122.5,132.5,135,135,377.5,SBD,
2,Asya Chakarova,F,Single-ply,Strength Squad,F-O,68,69,127.5,132.5,137.5,137.5,77.5,82.5,85,85,147.5,-152.5,-152.5,147.5,370,SBD,
3,Gabriela Romanova,F,Single-ply,MNG,F-O,64.1,69,-107.5,117.5,125,125,80,85,90,90,115,130,137.5,137.5,352.5,SBD,
4,Elita Dinkova,F,Single-ply,Yunak Kardzhali,F-O,67.8,69,80,-85,85,85,40,45,-47.5,45,80,87.5,95,95,225,SBD,
1,Lora Pipisheva,F,Single-ply,MNG,F-O,75.9,76,100,110,115,115,62.5,67.5,-72.5,67.5,135,145,150,150,332.5,SBD,
2,Petya Martinova,F,Single-ply,NSA,F-O,70.6,76,115,-120,120,120,-55,55,-57.5,55,120,130,142.5,142.5,317.5,SBD,
3,Belzak Sadak,F,Single-ply,Yunak Kardzhali,F-O,71.9,76,105,112.5,-115,112.5,52.5,55,-57.5,55,105,112.5,-117.5,112.5,280,SBD,
1,Mariya Tabakova,F,Single-ply,Flex,F-M1,62.9,63,85,92.5,100,100,65,70,75,75,130,140,145,145,320,SBD,
1,Stanimir Danchev,M,Single-ply,Marek 13,M-Sj,52.2,53,95,102.5,-110,102.5,55,60,65,65,100,110,120,120,287.5,SBD,
1,Dimitar Delev,M,Single-ply,Herkules,M-Sj,65,66,120,130,-142.5,130,75,80,82.5,82.5,170,-180,-180,170,382.5,SBD,
2,Ivan Raykov,M,Single-ply,MNG,M-Sj,65.8,66,90,97.5,105,105,70,75,-80,75,140,150,-155,150,330,SBD,
3,Nikolay Doychinov,M,Single-ply,Power Deadlift,M-Sj,61.8,66,82.5,95,105,105,52.5,57.5,65,65,115,132.5,-140,132.5,302.5,SBD,
1,Kaloyan Panayotov,M,Single-ply,NSA,M-Sj,70.7,74,185,195,-197.5,195,125,132.5,-140,132.5,180,195,-205,195,522.5,SBD,
2,Georgi Popov,M,Single-ply,Power Deadlift,M-Sj,72.9,74,185,-192.5,-192.5,185,65,80,85,85,185,200,207.5,207.5,477.5,SBD,
3,Mihail Ivanov,M,Single-ply,MNG,M-Sj,73.8,74,157.5,170,180,180,97.5,105,107.5,107.5,162.5,175,185,185,472.5,SBD,
4,Georgi Mitev,M,Single-ply,Marek 13,M-Sj,71,74,135,142.5,147.5,147.5,75,80,-85,80,190,-200,-200,190,417.5,SBD,
5,Martin Dimitrov,M,Single-ply,MNG,M-Sj,70.4,74,92.5,100,105,105,62.5,70,75,75,110,127.5,135,135,315,SBD,
DQ,Metodi Nedelchev,M,Single-ply,Power Deadlift,M-Sj,72.6,74,-130,-130,130,130,-90,-90,-90,,160,170,180,180,,SBD,
DQ,Georgi Lazarov,M,Single-ply,NSA,M-Sj,74,74,-115,-115,-115,,-90,,,,-170,,,,,SBD,
1,Boris Stoimenov,M,Single-ply,MNG,M-Sj,81.6,83,-195,195,-205,195,137.5,145,147.5,147.5,-225,232.5,240,240,582.5,SBD,
2,Viktov Ivanov,M,Single-ply,Strong,M-Sj,75,83,170,-177.5,-177.5,170,-115,-115,115,115,180,190,195,195,480,SBD,
3,Yordan Bojnakov,M,Single-ply,MNG,M-Sj,81.2,83,152.5,162.5,170,170,95,-102.5,-102.5,95,190,205,-212.5,205,470,SBD,
4,Dimitar Hristov,M,Single-ply,Strength Squad,M-Sj,82.3,83,155,162.5,170,170,82.5,-87.5,-87.5,82.5,167.5,175,180,180,432.5,SBD,
5,Sasho Georgiev,M,Single-ply,Power Deadlift,M-Sj,76.2,83,125,127.5,135,135,90,95,100,100,170,180,185,185,420,SBD,
6,Ivaylo Stoyanov,M,Single-ply,Yunak Kardzhali,M-Sj,79.4,83,120,127.5,-137.5,127.5,65,75,-80,75,140,155,170,170,372.5,SBD,
7,Borislav Ivaylov,M,Single-ply,Power Deadlift,M-Sj,82.5,83,130,140,-145,140,60,70,-75,70,145,-155,155,155,365,SBD,
8,Dobrin Totev,M,Single-ply,Lokomotiv GO,M-Sj,80.8,83,80,100,120,120,60,-70,-70,60,100,120,130,130,310,SBD,
9,Altai Ahmed,M,Single-ply,Lokomotiv GO,M-Sj,78.4,83,80,95,-105,95,60,70,-77.5,70,100,120,-130,120,285,SBD,
1,Antoni Aslam,M,Single-ply,Strength Squad,M-Sj,90.9,93,200,210,-215,210,135,137.5,-140,137.5,260,275,-282.5,275,622.5,SBD,
2,Nayden Balabanov,M,Single-ply,Lokomotiv GO,M-Sj,91,93,180,202.5,212.5,212.5,110,120,-122.5,120,160,180,185,185,517.5,SBD,
3,Yordan Nikolov,M,Single-ply,Marek 13,M-Sj,87.7,93,150,160,165,165,122.5,-132.5,-132.5,122.5,222.5,-240,-240,222.5,510,SBD,
4,Daniel Danailov,M,Single-ply,Morava,M-Sj,91.1,93,150,160,165,165,100,105,-107.5,105,190,-200,200,200,470,SBD,
5,Mladen Matev,M,Single-ply,Sila Tundja,M-Sj,90.9,93,-145,145,152.5,152.5,117.5,130,-140,130,160,170,180,180,462.5,SBD,
6,Preslav Asenov,M,Single-ply,Strength Squad,M-Sj,92.3,93,132.5,137.5,145,145,82.5,87.5,-90,87.5,170,180,190,190,422.5,SBD,
7,Ivaylo Ranev,M,Single-ply,Power Deadlift,M-Sj,92.4,93,120,130,140,140,80,90,-95,90,150,170,182.5,182.5,412.5,SBD,
DQ,Valentin Hristov,M,Single-ply,NSA,M-Sj,91.5,93,-170,-170,-175,,-100,105,-110,105,-190,200,210,210,,SBD,
1,Martin Spasov,M,Single-ply,Power Deadlift,M-Sj,103,105,140,160,170,170,85,95,-100,95,155,170,182.5,182.5,447.5,SBD,
2,Daniel Markov,M,Single-ply,Jim,M-Sj,95.8,105,60,70,80,80,40,-47.5,-47.5,40,70,80,90,90,210,SBD,
1,Kalin Drashkov,M,Single-ply,Strength Squad,M-Jr,65.7,66,160,180,200,200,130,137.5,142.5,142.5,255,265,272.5,272.5,615,SBD,
2,Angel Kasabov,M,Single-ply,Strength Squad,M-Jr,65,66,117.5,125,135,135,90,95,-100,95,162.5,170,180,180,410,SBD,
1,Ivan Bukev,M,Single-ply,MNG,M-Jr,74,74,160,172.5,-182.5,172.5,95,100,105,105,160,172.5,182.5,182.5,460,SBD,
2,Stenli Slavchev,M,Single-ply,NSA,M-Jr,72.3,74,150,-160,-165,150,90,95,-100,95,160,170,175,175,420,SBD,
3,Stiliyan Hristov,M,Single-ply,Yunak Kardzhali,M-Jr,73,74,90,-105,105,105,75,80,-85,80,140,155,165,165,350,SBD,
1,Valentin Kolev,M,Single-ply,Yunak Kardzhali,M-Jr,81.8,83,270,-285,285,285,120,-170,-170,120,250,280,300,300,705,SBD,
2,Radoslav Kalaidjiev,M,Single-ply,Yunak Kardzhali,M-Jr,83,83,200,215,222.5,222.5,157.5,167.5,172.5,172.5,200,215,222.5,222.5,617.5,SBD,
3,Ivaylo Andreev,M,Single-ply,MNG,M-Jr,82.8,83,165,175,-185,175,125,-130,-130,125,190,205,215,215,515,SBD,
4,Alexander Stoilov,M,Single-ply,Strength Squad,M-Jr,81.4,83,165,175,182.5,182.5,95,100,-102.5,100,190,205,210,210,492.5,SBD,
5,Yoan Dimitrov,M,Single-ply,Sila Tundja,M-Jr,78.8,83,150,160,-170,160,95,100,107.5,107.5,180,190,200,200,467.5,SBD,
6,Kaloyan Nikolov,M,Single-ply,Strength Squad,M-Jr,81.8,83,132.5,137.5,142.5,142.5,90,95,100,100,140,150,162.5,162.5,405,SBD,
7,Atanas Stoyanov,M,Single-ply,MNG,M-Jr,82,83,132.5,140,-142.5,140,92.5,100,102.5,102.5,137.5,145,155,155,397.5,SBD,
1,Nikolay Stoev,M,Single-ply,Strength Squad,M-Jr,92.7,93,237.5,247.5,257.5,257.5,157.5,167.5,175,175,250,262.5,-272.5,262.5,695,SBD,
2,Bozhidar Bonev,M,Single-ply,Flex,M-Jr,90.4,93,210,222.5,230,230,137.5,145,150,150,247.5,262.5,275,275,655,SBD,
3,Kristiyan Velkov,M,Single-ply,MNG,M-Jr,84.2,93,205,220,227.5,227.5,140,145,150,150,250,267.5,272.5,272.5,650,SBD,
4,Viktor Sandev,M,Single-ply,Strength Squad,M-Jr,91.4,93,-217.5,217.5,227.5,227.5,110,117.5,120,120,235,250,255,255,602.5,SBD,
5,Viktor Rusev,M,Single-ply,NSA,M-Jr,91,93,180,192.5,200,200,130,137.5,142.5,142.5,195,207.5,215,215,557.5,SBD,
DQ,Deniz Krudov,M,Single-ply,Morava,M-Jr,92.7,93,-270,-270,-270,,150,160,-162.5,160,240,250,257.5,257.5,,SBD,
1,Mihail Dimitrov,M,Single-ply,Power Deadlift,M-Jr,99.5,105,270,285,295,295,190,200,-210,200,270,285,-300,285,780,SBD,
2,Teodor Atanasov,M,Single-ply,Strong,M-Jr,104.5,105,255,265,-267.5,265,145,152.5,160,160,300,-315,-315,300,725,SBD,
3,Antoan Deikov,M,Single-ply,Power Deadlift,M-Jr,100.6,105,220,240,245,245,155,-165,165,165,260,275,-285,275,685,SBD,
4,Radoslav Omarchevski,M,Single-ply,Strength Squad,M-Jr,103.7,105,200,215,225,225,157.5,165,170,170,190,202.5,215,215,610,SBD,
5,Georgi Sharbanov,M,Single-ply,Maximus,M-Jr,95,105,190,200,-210,200,100,110,125,125,190,210,225,225,550,SBD,
6,Nikolay Popov,M,Single-ply,Power Deadlift,M-Jr,104,105,-190,-190,190,190,-110,110,120,120,235,-250,-250,235,545,SBD,
7,Danail Chaushev,M,Single-ply,Strength Squad,M-Jr,103.5,105,165,-170,-170,165,110,-112.5,-112.5,110,210,230,247.5,247.5,522.5,SBD,
8,Emil Doichinov,M,Single-ply,MNG,M-Jr,102.1,105,135,145,-150,145,100,107.5,-110,107.5,230,245,-257.5,245,497.5,SBD,
9,Svetoslav Vichev,M,Single-ply,Yunak Kardzhali,M-Jr,101.4,105,120,140,-155,140,100,110,-117.5,110,190,200,-210,200,450,SBD,
1,Ivan Georgiev,M,Single-ply,NSA,M-Jr,118.6,120,250,270,-272.5,270,190,200,-202.5,200,290,310,-312.5,310,780,SBD,
1,Zdravko Hristov,M,Single-ply,MNG,M-M1,73.2,74,110,-120,-130,110,77.5,-80,-80,77.5,155,162.5,-167.5,162.5,350,SBD,
1,Stefan Stefanov,M,Single-ply,NSA,M-M1,74.4,83,115,125,135,135,100,110,117.5,117.5,130,170,195,195,447.5,SBD,
1,Mihail Mihaylov,M,Single-ply,Yunak Kardzhali,M-M1,86.9,93,100,112.5,120,120,90,100,105,105,145,160,-170,160,385,SBD,
1,Adrian Hirstov,M,Single-ply,Maximus,M-M1,100.9,105,200,220,-222.5,220,-160,160,170,170,200,220,240,240,630,SBD,
1,Kolio Kolev,M,Single-ply,NSA,M-M3,93,93,200,210,215,215,60,-65,-65,60,200,210,220,220,495,SBD,
1,Daniel Matev,M,Single-ply,Strength Squad,M-O,73.6,74,190,200,207.5,207.5,150,155,160,160,217.5,-232.5,-235,217.5,585,SBD,
2,Georgi Paliiski,M,Single-ply,Herkules,M-O,69.8,74,190,207.5,-215,207.5,-120,130,-135,130,217.5,232.5,-250,232.5,570,SBD,
3,Mishel Martin,M,Single-ply,Marek 13,M-O,69.1,74,75,105,-107.5,105,75,95,-97.5,95,205,225,-232.5,225,425,SBD,
1,Zdravko Petrov,M,Single-ply,Yunak Kardzhali,M-O,82.3,83,285,300,-302.5,300,190,200,207.5,207.5,245,260,270,270,777.5,SBD,
2,Kiril Valchanov,M,Single-ply,Strong,M-O,82.7,83,240,260,-270,260,140,147.5,-150,147.5,270,280,-282.5,280,687.5,SBD,
3,Hristo Panayotov,M,Single-ply,Strength Squad,M-O,82.5,83,230,237.5,242.5,242.5,145,152.5,160,160,235,245,250,250,652.5,SBD,
4,Robert Mihailov,M,Single-ply,Marek 13,M-O,83,83,180,190,-192.5,190,-175,-177.5,177.5,177.5,250,270,282.5,282.5,650,SBD,
5,Vladimir Borisov,M,Single-ply,Strong,M-O,82.3,83,200,210,220,220,-120,130,-137.5,130,210,222.5,-235,222.5,572.5,SBD,
6,Dobromir Kyumdjiev,M,Single-ply,Lokomotiv GO,M-O,81.2,83,182.5,195,202.5,202.5,112.5,117.5,122.5,122.5,222.5,240,-242.5,240,565,SBD,
7,Vladislav Stamenov,M,Single-ply,Power Deadlift,M-O,81,83,170,180,-185,180,130,140,-147.5,140,215,-222.5,222.5,222.5,542.5,SBD,
8,Ivan Arnaudov,M,Single-ply,Lokomotiv GO,M-O,81.2,83,-90,-90,90,90,135,142.5,-145,142.5,110,120,130,130,362.5,SBD,
1,Lachezar Parvanov,M,Single-ply,Power Deadlift,M-O,88.9,93,250,260,-280,260,180,195,-202.5,195,250,-260,-260,250,705,SBD,
2,Atanas Nikolv,M,Single-ply,MNG,M-O,91.1,93,217.5,232.5,245,245,157.5,167.5,172.5,172.5,247.5,265,275,275,692.5,SBD,
3,Vladimir Zapryanov,M,Single-ply,NSA,M-O,91.6,93,220,235,245,245,185,195,-205,195,235,252.5,-265,252.5,692.5,SBD,
4,Georgi Stanchev,M,Single-ply,Ayax,M-O,91.4,93,225,235,242.5,242.5,175,182.5,-187.5,182.5,-250,250,-270,250,675,SBD,
5,Nedelcho Mitzov,M,Single-ply,Strength Squad,M-O,92,93,192.5,202.5,212.5,212.5,162.5,170,-175,170,255,265,-275,265,647.5,SBD,
6,Milen Kostadinov,M,Single-ply,Power Deadlift,M-O,91.9,93,-230,230,250,250,100,105,110,110,240,260,-270,260,620,SBD,
7,Yordan Deykov,M,Single-ply,Jim,M-O,92.6,93,215,225,-232.5,225,130,-137.5,-137.5,130,250,260,-265,260,615,SBD,
8,Petar Stoilov,M,Single-ply,Yunak Kardzhali,M-O,92.3,93,195,205,210,210,-135,145,155,155,190,200,210,210,575,SBD,
9,Damyan Kolevski,M,Single-ply,Strong,M-O,89.6,93,175,190,-200,190,115,130,-137.5,130,215,230,-245,230,550,SBD,
10,Svetoslav Karamukov,M,Single-ply,Yunak Kardzhali,M-O,83.1,93,190,200,-207.5,200,110,117.5,122.5,122.5,200,215,-222.5,215,537.5,SBD,
1,Yordan Ivanov,M,Single-ply,Yunak Kardzhali,M-O,96.8,105,295,310,320,320,232.5,242.5,250,250,270,282.5,292.5,292.5,862.5,SBD,
2,Biser Velislavov,M,Single-ply,MNG,M-O,104.8,105,255,265,-270,265,175,182.5,-187.5,182.5,280,292.5,300,300,747.5,SBD,
3,Borislav Petrov,M,Single-ply,Power Deadlift,M-O,96.9,105,250,255,-260,255,180,185,-190,185,290,300,-305,300,740,SBD,
4,Veselin Borisov,M,Single-ply,Power Deadlift,M-O,102.1,105,235,250,255,255,160,165,-170,165,290,310,317.5,317.5,737.5,SBD,
5,Veselin Doychev,M,Single-ply,Power Deadlift,M-O,104.3,105,220,240,250,250,150,157.5,162.5,162.5,280,305,317.5,317.5,730,SBD,
6,Valentin Matanov,M,Single-ply,Strong,M-O,101.2,105,235,242.5,247.5,247.5,150,160,-170,160,260,270,280,280,687.5,SBD,
7,Plamen Georgiev,M,Single-ply,Power Deadlift,M-O,99.5,105,160,170,175,175,120,125,130,130,170,185,200,200,505,SBD,
1,Mario Raychev,M,Single-ply,Power Deadlift,M-O,111.8,120,340,360,-370,360,210,220,222.5,222.5,275,290,-300,290,872.5,SBD,
2,Vladimir Vladimirov,M,Single-ply,Power Deadlift,M-O,111.9,120,300,320,335,335,150,160,-165,160,330,-350,350,350,845,SBD,
3,Alexander Pelovski,M,Single-ply,Yunak Kardzhali,M-O,115.2,120,310,330,-360,330,-210,210,-220,210,-270,270,290,290,830,SBD,
4,Tayrumen Tayrumer,M,Single-ply,Strong,M-O,106,120,-240,250,-260,250,160,170,-180,170,240,250,-260,250,670,SBD,
5,Grigor Penchev,M,Single-ply,MNG,M-O,115.8,120,210,225,-230,225,160,170,-172.5,170,215,227.5,-237.5,227.5,622.5,SBD,
1,Lyubomir Dimitrov,M,Single-ply,Power Deadlift,M-O,125.3,120+,310,325,337.5,337.5,150,-160,-160,150,270,300,-302.5,300,787.5,SBD,
2,Radostin Radev,M,Single-ply,MNG,M-O,120.3,120+,125,-130,-130,125,-170,180,187.5,187.5,155,205,-255,205,517.5,SBD,
