Division,WeightClassKg,Place,Name,Team,BodyweightKg,Best3SquatKg,Best3BenchKg,Best3DeadliftKg,TotalKg,Equipment,Event,Sex,BirthDate
Boys,51.71,1,Damian Ash,Royse City,50.98,140.61,99.79,145.15,385.55,Unlimited,SBD,M,
Boys,51.71,2,David Ayala Sanchez,Quinlan Ford,47.17,113.4,79.38,136.08,328.85,Unlimited,SBD,M,
Boys,51.71,3,Jayden Matthews,Farmersville,47.9,92.99,61.23,102.06,256.28,Unlimited,SBD,M,
Boys,51.71,4,Cooper Stewart,Kaufman,44.45,77.11,45.36,90.72,213.19,Unlimited,SBD,M,
Boys,51.71,5,Jake Stufflebeme,Trenton,49.44,65.77,31.75,74.84,172.37,Unlimited,SBD,M,
Boys,55.79,1,Kevin Chavez,Royse City,53.52,167.83,86.18,183.7,437.72,Unlimited,SBD,M,
Boys,55.79,2,Dylan Kelly,Willow Park Trinity Christian Academy,51.98,104.33,65.77,167.83,337.93,Unlimited,SBD,M,
Boys,55.79,3,Graysen Patterson,Quinlan Ford,54.88,115.67,74.84,147.42,337.93,Unlimited,SBD,M,
Boys,55.79,4,Asher Apodaca,Little Elm,52.62,120.2,63.5,124.74,308.44,Unlimited,SBD,M,
Boys,55.79,5,Jp Fendley,Trenton,53.98,72.57,54.43,90.72,217.72,Unlimited,SBD,M,
Boys,55.79,6,Gavyn Brown,Bowie,55.34,142.88,,,142.88,Unlimited,S,M,
Boys,59.87,1,Nathan Kolstad,Nevada Community,58.97,197.31,106.59,183.7,487.61,Unlimited,SBD,M,
Boys,59.87,2,Robert Zambrano,Bowie,57.61,195.04,92.99,170.1,458.13,Unlimited,SBD,M,
Boys,59.87,3,Anthony Rosales,Princeton,59.24,170.1,92.99,167.83,430.91,Unlimited,SBD,M,
Boys,59.87,4,Kayden Simms,Royse City,57.15,154.22,88.45,158.76,401.43,Unlimited,SBD,M,
Boys,59.87,5,Will Saadeh,Willow Park Trinity Christian Academy,56.06,149.69,65.77,156.49,371.95,Unlimited,SBD,M,
Boys,59.87,6,Cole Crawford,Royse City,58.33,136.08,92.99,124.74,353.8,Unlimited,SBD,M,
Boys,59.87,7,Connor Nickell,Caddo Mills,58.42,133.81,72.57,124.74,331.12,Unlimited,SBD,M,
Boys,59.87,8,Eric Melendez,Carrollton Turner,56.25,104.33,63.5,122.47,290.3,Unlimited,SBD,M,
Boys,59.87,9,Tye Gimeno,Leonard,58.42,88.45,58.97,90.72,238.14,Unlimited,SBD,M,
Boys,59.87,10,Hunter Hopkins,Celeste,56.97,95.25,45.36,90.72,231.33,Unlimited,SBD,M,
Boys,59.87,11,Robinson Sydney,Little Elm,56.43,90.72,,,90.72,Unlimited,S,M,
Boys,67.13,1,Landry Hoffman,Royse City,66.13,208.65,136.08,181.44,526.17,Unlimited,SBD,M,
Boys,67.13,2,Michael Lopez,Princeton,65.32,213.19,106.59,183.7,503.49,Unlimited,SBD,M,
Boys,67.13,3,Jose Elisondo,Carrollton Turner,64.86,195.04,113.4,192.78,501.22,Unlimited,SBD,M,
Boys,67.13,4,Austin Sampley,Keller Harvest Christian Academy,64.41,183.7,129.27,165.56,478.54,Unlimited,SBD,M,
Boys,67.13,5,Cooper Mcshan,Bowie,64.5,188.24,108.86,176.9,474,Unlimited,SBD,M,
Boys,67.13,6,Jacob Walker,Princeton,66.22,174.63,92.99,190.51,458.13,Unlimited,SBD,M,
Boys,67.13,7,Josias Ramirez-Diaz,Quinlan Ford,65.77,165.56,117.93,158.76,442.25,Unlimited,SBD,M,
Boys,67.13,8,Rocky Bonilla,Kaufman,61.23,151.95,88.45,181.44,421.84,Unlimited,SBD,M,
Boys,67.13,9,Chris Rodriguez,Kaufman,65.77,154.22,104.33,161.03,419.57,Unlimited,SBD,M,
Boys,67.13,10,Brody Smith,Quinlan Ford,64.14,172.37,70.31,163.29,405.97,Unlimited,SBD,M,
Boys,67.13,11,Luke Wymer,Leonard,65.59,158.76,104.33,142.88,405.97,Unlimited,SBD,M,
Boys,67.13,12,Josiah Smith,Royse City,61.6,142.88,88.45,163.29,394.63,Unlimited,SBD,M,
Boys,67.13,13,Urban Casper,Princeton,66.68,156.49,92.99,142.88,392.36,Unlimited,SBD,M,
Boys,67.13,14,Maddox Underwood,Leonard,65.23,136.08,81.65,140.61,358.34,Unlimited,SBD,M,
Boys,67.13,15,Mason Tigue,Quinlan Ford,64.23,136.08,74.84,136.08,347,Unlimited,SBD,M,
Boys,67.13,16,Corbin Pond,Blue Ridge,65.77,136.08,88.45,113.4,337.93,Unlimited,SBD,M,
Boys,67.13,17,Justin Foster,Leonard,66.5,120.2,74.84,131.54,326.59,Unlimited,SBD,M,
Boys,67.13,18,Brysen Coleman,Nevada Community,65.23,106.59,56.7,138.35,301.64,Unlimited,SBD,M,
Boys,67.13,19,Bradie Lindstrom,Little Elm,62.14,111.13,61.23,117.93,290.3,Unlimited,SBD,M,
Boys,67.13,20,Connor Thomas,Celeste,60.33,92.99,68.04,113.4,274.42,Unlimited,SBD,M,
Boys,67.13,21,Will Hall,Cooper,66.68,111.13,63.5,92.99,267.62,Unlimited,SBD,M,
Boys,67.13,DQ,Kyle Barr,Little Elm,65.32,147.42,,,,Unlimited,SBD,M,
Boys,67.13,DQ,Yeray Penaloza,Farmersville,64.95,172.37,97.52,,,Unlimited,SBD,M,
Boys,67.13,DQ,Lucas Ruiz,Nevada Community,62.96,124.74,,,,Unlimited,SBD,M,
Boys,74.84,1,Emmanuel Martinez,Princeton,68.58,222.26,165.56,215.46,603.28,Unlimited,SBD,M,
Boys,74.84,2,Diesel Tijerina,Royse City,73.03,229.06,138.35,199.58,566.99,Unlimited,SBD,M,
Boys,74.84,3,Besnik Hysenaj,Little Elm,73.48,210.92,133.81,204.12,548.85,Unlimited,SBD,M,
Boys,74.84,4,Blake Kurtz,Royse City,71.67,217.72,136.08,190.51,544.31,Unlimited,SBD,M,
Boys,74.84,5,Grody Upchurch,Princeton,74.84,215.46,131.54,192.78,539.77,Unlimited,SBD,M,
Boys,74.84,6,Patrick Moreno,Carrollton Turner,71.21,190.51,115.67,197.31,503.49,Unlimited,SBD,M,
Boys,74.84,7,Tanner Poltl,Lucas Lovejoy,72.12,174.63,111.13,206.38,492.15,Unlimited,SBD,M,
Boys,74.84,8,Remingten Wyatt,Leonard,69.4,181.44,117.93,190.51,489.88,Unlimited,SBD,M,
Boys,74.84,9,Stone Warren,Quinlan Ford,73.48,158.76,83.91,185.97,428.64,Unlimited,SBD,M,
Boys,74.84,10,Andres Oilslant,Carrollton Turner,74.84,154.22,95.25,165.56,415.04,Unlimited,SBD,M,
Boys,74.84,11,Breyden Tull,Farmersville,72.21,156.49,104.33,149.69,410.5,Unlimited,SBD,M,
Boys,74.84,12,Bunmen Looth,Paris North Lamar,68.95,142.88,102.06,158.76,403.7,Unlimited,SBD,M,
Boys,74.84,13,Antony Rivera,Farmersville,69.04,161.03,79.38,158.76,399.16,Unlimited,SBD,M,
Boys,74.84,14,Landen Black,Kaufman,71.67,122.47,115.67,161.03,399.16,Unlimited,SBD,M,
Boys,74.84,15,Owen Coates,Willow Park Trinity Christian Academy,73.03,142.88,83.91,167.83,394.63,Unlimited,SBD,M,
Boys,74.84,16,Alexander Godwin,Kaufman,68.95,136.08,88.45,165.56,390.09,Unlimited,SBD,M,
Boys,74.84,17,Cyrus Ford,Celeste,73.03,133.81,102.06,151.95,387.82,Unlimited,SBD,M,
Boys,74.84,18,Carlos Pineda,Carrollton Turner,74.39,142.88,95.25,142.88,381.02,Unlimited,SBD,M,
Boys,74.84,19,Pearson Kuykendall,Willow Park Trinity Christian Academy,67.59,136.08,77.11,158.76,371.95,Unlimited,SBD,M,
Boys,74.84,20,Kennedy Adomson,Celeste,72.12,120.2,97.52,124.74,342.46,Unlimited,SBD,M,
Boys,74.84,21,Kamryn Shannon,Dallas Lincoln,71.94,106.59,83.91,140.61,331.12,Unlimited,SBD,M,
Boys,74.84,22,Zayvain Green,Dallas Lincoln,67.22,77.11,68.04,120.2,265.35,Unlimited,SBD,M,
Boys,74.84,22,Valentin Solis,Nevada Community,73.94,120.2,65.77,145.15,331.12,Unlimited,SBD,M,
Boys,74.84,23,Titus Oliver,Paris North Lamar,73.48,113.4,86.18,120.2,319.78,Unlimited,SBD,M,
Boys,74.84,24,Jackson McCullough,Trenton,73.94,124.74,65.77,129.27,319.78,Unlimited,SBD,M,
Boys,74.84,25,Monte Mayfeild,Bowie,69.4,149.69,83.91,,233.6,Unlimited,SB,M,
Boys,74.84,26,Kendall Schneyer,Little Elm,74.57,151.95,70.31,,222.26,Unlimited,SB,M,
Boys,74.84,DQ,Zander Huffman,Trenton,68.04,,,,,Unlimited,SBD,M,
Boys,74.84,DQ,Tristan Smith,Princeton,74.84,,,,,Unlimited,SBD,M,
Boys,74.84,DQ,Jaed Acovega,Princeton,73.62,,,,,Unlimited,SBD,M,
Boys,82.1,1,Will Ngyuen,Princeton,80.29,238.14,179.17,222.26,639.57,Unlimited,SBD,M,
Boys,82.1,2,Braylon Vick,Terrell,79.83,256.28,142.88,210.92,610.08,Unlimited,SBD,M,
Boys,82.1,3,Ryan Jumper,Paris North Lamar,78.02,229.06,156.49,190.51,576.06,Unlimited,SBD,M,
Boys,82.1,4,Blake White,Quinlan Ford,79.74,213.19,136.08,226.8,576.06,Unlimited,SBD,M,
Boys,82.1,5,Tanner Williams,Princeton,77.93,213.19,136.08,195.04,544.31,Unlimited,SBD,M,
Boys,82.1,6,Buddy Posey,Paris North Lamar,78.47,192.78,136.08,204.12,532.97,Unlimited,SBD,M,
Boys,82.1,7,Bladimir Pena,Carrollton Turner,79.38,185.97,113.4,206.38,505.76,Unlimited,SBD,M,
Boys,82.1,8,Max Dimarco,Lucas Lovejoy,77.66,174.63,142.88,183.7,501.22,Unlimited,SBD,M,
Boys,82.1,9,Conner Valley,Little Elm,81.1,183.7,113.4,204.12,501.22,Unlimited,SBD,M,
Boys,82.1,10,Cameron Widner,Paris North Lamar,78.02,183.7,113.4,188.24,485.34,Unlimited,SBD,M,
Boys,82.1,11,Dylan Peoples,Caddo Mills,76.66,183.7,106.59,188.24,478.54,Unlimited,SBD,M,
Boys,82.1,12,Demarcus Johnson,Royse City,77.47,174.63,111.13,174.63,460.4,Unlimited,SBD,M,
Boys,82.1,13,Osualdo Hernandez,Caddo Mills,80.74,179.17,108.86,142.88,430.91,Unlimited,SBD,M,
Boys,82.1,14,Brian Zapata,Kaufman,76.02,142.88,136.08,145.15,424.11,Unlimited,SBD,M,
Boys,82.1,15,Hudson Young,Quinlan Ford,79.38,149.69,102.06,170.1,421.84,Unlimited,SBD,M,
Boys,82.1,16,Cole Ellis,Caddo Mills,78.93,138.35,90.72,183.7,412.77,Unlimited,SBD,M,
Boys,82.1,17,Jayden Greenwood,Caddo Mills,80.74,156.49,99.79,151.95,408.23,Unlimited,SBD,M,
Boys,82.1,18,Lauro Lauriano,Kaufman,81.1,151.95,83.91,167.83,403.7,Unlimited,SBD,M,
Boys,82.1,19,Gavin Beierschmitt,Caddo Mills,78.47,151.95,92.99,151.95,396.89,Unlimited,SBD,M,
Boys,82.1,20,Austin Sellers,Trenton,77.11,142.88,74.84,170.1,387.82,Unlimited,SBD,M,
Boys,82.1,21,Elijah Burlison,Farmersville,79.47,149.69,81.65,151.95,383.29,Unlimited,SBD,M,
Boys,82.1,22,Eli Highlander,Caddo Mills,78.47,156.49,83.91,138.35,378.75,Unlimited,SBD,M,
Boys,82.1,23,Cooper Horne,Nevada Community,81.19,142.88,81.65,142.88,367.41,Unlimited,SBD,M,
Boys,82.1,24,Akin Cervantes,Carrollton Turner,76.2,140.61,77.11,133.81,351.53,Unlimited,SBD,M,
Boys,82.1,25,Trinidad Delgado,Celeste,80.74,115.67,97.52,133.81,347,Unlimited,SBD,M,
Boys,82.1,26,Malaki Tillery,Paris North Lamar,77.56,204.12,117.93,192.78,514.83,Unlimited,SBD,M,
Boys,82.1,27,Adedlapo Kareen,Little Elm,77.56,92.99,63.5,149.69,306.17,Unlimited,SBD,M,
Boys,82.1,28,Isaac Robinson,Dallas Lincoln,75.39,83.91,81.65,138.35,303.91,Unlimited,SBD,M,
Boys,82.1,29,Michael Haynes,Terrell,80.74,92.99,74.84,113.4,281.23,Unlimited,SBD,M,
Boys,82.1,30,Noah Metzler,Bowie,81.01,165.56,102.06,,267.62,Unlimited,SB,M,
Boys,82.1,31,Jayden Condela,Trenton,80.29,142.88,117.93,,260.82,Unlimited,SB,M,
Boys,82.1,32,Derayvian Lang,Dallas Lincoln,77.84,61.23,52.16,136.08,249.48,Unlimited,SBD,M,
Boys,82.1,DQ,Vicente Luna,Farmersville,75.93,,72.57,,,Unlimited,SBD,M,
Boys,89.81,1,Luke Susman,Lucas Lovejoy,87.18,272.16,165.56,226.8,664.51,Unlimited,SBD,M,
Boys,89.81,2,Daniel Tyutyunnik,Princeton,89.36,240.4,120.2,272.16,632.76,Unlimited,SBD,M,
Boys,89.81,3,Ben Susman,Lucas Lovejoy,87.82,233.6,165.56,215.46,614.62,Unlimited,SBD,M,
Boys,89.81,4,Robbie Martinez,Carrollton Turner,83.01,226.8,145.15,213.19,585.13,Unlimited,SBD,M,
Boys,89.81,5,Tristan Nichols,Celeste,87.54,219.99,158.76,197.31,576.06,Unlimited,SBD,M,
Boys,89.81,6,Edgar Castilla,Carrollton Turner,87.54,206.38,115.67,233.6,555.65,Unlimited,SBD,M,
Boys,89.81,7,Noah Garrett,Kaufman,86.64,183.7,142.88,215.46,542.04,Unlimited,SBD,M,
Boys,89.81,8,Jonathan Walters,Princeton,87.18,226.8,129.27,181.44,537.51,Unlimited,SBD,M,
Boys,89.81,9,Pate Bowers,Kaufman,84.1,201.85,142.88,183.7,528.44,Unlimited,SBD,M,
Boys,89.81,10,Jaxson Wattjen,Princeton,86.36,208.65,115.67,199.58,523.9,Unlimited,SBD,M,
Boys,89.81,11,Noah Grill,Royse City,86.64,197.31,142.88,174.63,514.83,Unlimited,SBD,M,
Boys,89.81,12,Tripp Brewer,Bowie,88.9,226.8,127.01,158.76,512.56,Unlimited,SBD,M,
Boys,89.81,13,Rhett Bestul,Paris North Lamar,84.37,188.24,127.01,195.04,510.29,Unlimited,SBD,M,
Boys,89.81,14,Chandler Holman,Leonard,88.27,199.58,120.2,183.7,503.49,Unlimited,SBD,M,
Boys,89.81,15,Daniel Tucker,Farmersville,85.91,172.37,104.33,183.7,460.4,Unlimited,SBD,M,
Boys,89.81,16,Peyton Brown,Caddo Mills,88.45,183.7,108.86,167.83,460.4,Unlimited,SBD,M,
Boys,89.81,17,Javier Moreno,Bowie,87.09,163.29,117.93,151.95,433.18,Unlimited,SBD,M,
Boys,89.81,18,David Roush,Cooper,88.36,161.03,97.52,174.63,433.18,Unlimited,SBD,M,
Boys,89.81,19,Trail Wilkins,Paris North Lamar,87.09,142.88,92.99,149.69,385.55,Unlimited,SBD,M,
Boys,89.81,20,Trent McLemare,Celeste,88.45,151.95,83.91,142.88,378.75,Unlimited,SBD,M,
Boys,89.81,21,Logan Gournay,Farmersville,88.36,120.2,74.84,136.08,331.12,Unlimited,SBD,M,
Boys,89.81,22,Cj Poff,Trenton,84.64,115.67,68.04,142.88,326.59,Unlimited,SBD,M,
Boys,89.81,23,Garrett Wyatt,Leonard,88.45,111.13,72.57,115.67,299.37,Unlimited,SBD,M,
Boys,89.81,DQ,Jesse Troy,Paris North Lamar,87.09,165.56,136.08,,,Unlimited,SBD,M,
Boys,99.79,1,Braylin Garcia,Leonard,97.52,260.82,190.51,217.72,669.05,Unlimited,SBD,M,
Boys,99.79,2,Gavin Prince,Lucas Lovejoy,94.62,226.8,183.7,217.72,628.23,Unlimited,SBD,M,
Boys,99.79,3,Maliek Harris,Leonard,94.35,235.87,151.95,219.99,607.81,Unlimited,SBD,M,
Boys,99.79,4,Ty Smith,Lucas Lovejoy,94.89,206.38,165.56,206.38,578.33,Unlimited,SBD,M,
Boys,99.79,5,Tate Quinlan,Farmersville,96.89,197.31,145.15,192.78,535.24,Unlimited,SBD,M,
Boys,99.79,6,Jayden Reed,Kaufman,95.71,188.24,149.69,190.51,528.44,Unlimited,SBD,M,
Boys,99.79,7,Jayden Foster,Nevada Community,98.43,208.65,113.4,197.31,519.36,Unlimited,SBD,M,
Boys,99.79,8,Austin States,Quinlan Ford,94.8,188.24,113.4,215.46,517.1,Unlimited,SBD,M,
Boys,99.79,9,Damon Dunbar,Terrell,91.17,188.24,108.86,192.78,489.88,Unlimited,SBD,M,
Boys,99.79,10,Keyvan Prunty,Princeton,92.08,204.12,106.59,170.1,480.81,Unlimited,SBD,M,
Boys,99.79,11,Payton Wallen,Quinlan Ford,93.44,181.44,111.13,179.17,471.74,Unlimited,SBD,M,
Boys,99.79,12,Asa Townson,Terrell,92.99,174.63,120.2,170.1,464.93,Unlimited,SBD,M,
Boys,99.79,13,John Garcia-Mercado,Carrollton Turner,91.9,154.22,124.74,183.7,462.66,Unlimited,SBD,M,
Boys,99.79,14,Isreal Verde,Caddo Mills,93.44,176.9,111.13,170.1,458.13,Unlimited,SBD,M,
Boys,99.79,15,Justin Queneau,Nevada Community,98.88,158.76,97.52,154.22,410.5,Unlimited,SBD,M,
Boys,99.79,16,Levi Thomas,Nevada Community,91.63,147.42,99.79,133.81,381.02,Unlimited,SBD,M,
Boys,99.79,17,Pedro Ramos,Cooper,98.43,165.56,70.31,142.88,378.75,Unlimited,SBD,M,
Boys,99.79,18,Rylan McFarland,Celeste,90.26,133.81,79.38,142.88,356.07,Unlimited,SBD,M,
Boys,99.79,19,Brendon Ruff,Terrell,90.17,124.74,83.91,129.27,337.93,Unlimited,SBD,M,
Boys,99.79,20,Gavin Cowles,Farmersville,97.52,111.13,65.77,99.79,276.69,Unlimited,SBD,M,
Boys,99.79,DQ,Nathan Munguia,Princeton,98.43,170.1,90.72,,,Unlimited,SBD,M,
Boys,99.79,DQ,Dillan Golightly,Trenton,90.72,136.08,,,,Unlimited,SBD,M,
Boys,109.77,1,Diego Capetillo,Farmersville,101.79,274.42,192.78,281.23,748.43,Unlimited,SBD,M,
Boys,109.77,2,Tristan Rodelo,Carrollton Turner,106.59,258.55,133.81,235.87,628.23,Unlimited,SBD,M,
Boys,109.77,3,Michkeal Kennedy,Terrell,109.32,204.12,183.7,226.8,614.62,Unlimited,SBD,M,
Boys,109.77,4,Nick Garz,Little Elm,105.23,240.4,127.01,208.65,576.06,Unlimited,SBD,M,
Boys,109.77,5,Seth Yates,Royse City,105.69,215.46,147.42,174.63,537.51,Unlimited,SBD,M,
Boys,109.77,6,Houston Beebe,Leonard,100.61,210.92,140.61,172.37,523.9,Unlimited,SBD,M,
Boys,109.77,7,Will Katenkomp,Caddo Mills,102.87,217.72,124.74,181.44,523.9,Unlimited,SBD,M,
Boys,109.77,8,Sean Lee,Terrell,107.05,188.24,120.2,204.12,512.56,Unlimited,SBD,M,
Boys,109.77,9,Antonio Sanchez,Princeton,108.41,176.9,117.93,165.56,460.4,Unlimited,SBD,M,
Boys,109.77,10,Ben Pitts,Blue Ridge,106.59,163.29,97.52,195.04,455.86,Unlimited,SBD,M,
Boys,109.77,11,Levi McCloure,Paris North Lamar,108.68,158.76,106.59,161.03,426.38,Unlimited,SBD,M,
Boys,109.77,12,Korbin Liggins,Paris North Lamar,107.5,147.42,102.06,163.29,412.77,Unlimited,SBD,M,
Boys,109.77,13,Nathan Garlow,Princeton,109.32,149.69,90.72,167.83,408.23,Unlimited,SBD,M,
Boys,109.77,14,Hayden Rodrequez,Bowie,105.69,142.88,86.18,158.76,387.82,Unlimited,SBD,M,
Boys,109.77,15,Tyler Hoskison,Cooper,101.15,156.49,83.91,142.88,383.29,Unlimited,SBD,M,
Boys,109.77,16,Brayden Soles,Nevada Community,102.87,147.42,83.91,145.15,376.48,Unlimited,SBD,M,
Boys,109.77,17,Garrett Williams,Farmersville,104.51,147.42,81.65,142.88,371.95,Unlimited,SBD,M,
Boys,109.77,18,Kevin Ugalde,Cooper,102.51,142.88,83.91,142.88,369.68,Unlimited,SBD,M,
Boys,109.77,19,Marshall Gatlin,Lucas Lovejoy,100.61,151.95,,,151.95,Unlimited,S,M,
Boys,109.77,20,Jaxson Herbertson,Nevada Community,102.97,142.88,,,142.88,Unlimited,S,M,
Boys,124.74,1,Reuben Logan,Royse City,122.47,249.48,165.56,183.7,598.74,Unlimited,SBD,M,
Boys,124.74,2,Corbin Fowler,Quinlan Ford,114.12,238.14,147.42,206.38,591.94,Unlimited,SBD,M,
Boys,124.74,3,Noah Brown,Bowie,115.21,204.12,154.22,206.38,564.72,Unlimited,SBD,M,
Boys,124.74,4,Jose Garcia,Celeste,121.11,217.72,158.76,174.63,551.11,Unlimited,SBD,M,
Boys,124.74,5,Brayden Reynolds,Paris North Lamar,117.93,208.65,145.15,170.1,523.9,Unlimited,SBD,M,
Boys,124.74,6,Ayden Marek,Caddo Mills,124.74,217.72,102.06,204.12,523.9,Unlimited,SBD,M,
Boys,124.74,7,Dominic Haeda,Princeton,124.47,181.44,111.13,224.53,517.1,Unlimited,SBD,M,
Boys,124.74,8,Sip Bingham,Princeton,124.28,199.58,120.2,192.78,512.56,Unlimited,SBD,M,
Boys,124.74,9,Carson Baskin,Terrell,119.84,188.24,111.13,190.51,489.88,Unlimited,SBD,M,
Boys,124.74,10,Viko Santibanez,Nevada Community,120.2,170.1,90.72,199.58,460.4,Unlimited,SBD,M,
Boys,124.74,11,Diego Gonalez,Little Elm,115.67,183.7,113.4,149.69,446.79,Unlimited,SBD,M,
Boys,124.74,12,Braden Boone,Trenton,111.58,142.88,72.57,181.44,396.89,Unlimited,SBD,M,
Boys,124.74,13,Shawn Fowler,Trenton,111.13,136.08,102.06,129.27,367.41,Unlimited,SBD,M,
Boys,124.74,14,Gianno Lark,Terrell,111.13,142.88,68.04,147.42,358.34,Unlimited,SBD,M,
Boys,124.74,15,Antoine Elmore,Dallas Lincoln,115.21,113.4,83.91,138.35,335.66,Unlimited,SBD,M,
Boys,124.74,16,Aldon Moreno,Terrell,123.38,165.56,,,165.56,Unlimited,S,M,
Boys,124.74,DQ,Chris Mccarkle,Trenton,112.04,,,,,Unlimited,SBD,M,
Boys,139.71,1,Alonzo Tijerina,Kaufman,135.53,283.5,183.7,244.94,712.14,Unlimited,SBD,M,
Boys,139.71,2,Cash Ottwell,Celeste,137.44,215.46,204.12,226.8,646.37,Unlimited,SBD,M,
Boys,139.71,3,Jacobi McGregger,Bowie,139.71,219.99,161.03,183.7,564.72,Unlimited,SBD,M,
Boys,139.71,4,Johan Castano,Carrollton Turner,131.54,206.38,142.88,158.76,508.02,Unlimited,SBD,M,
Boys,139.71,5,Luke Duncan,Princeton,138.35,158.76,131.54,142.88,433.18,Unlimited,SBD,M,
Boys,139.71,6,Kaleb Bellmare,Terrell,132.9,188.24,97.52,142.88,428.64,Unlimited,SBD,M,
Boys,139.71,7,John Garza,Caddo Mills,132,176.9,97.52,147.42,421.84,Unlimited,SBD,M,
Boys,139.71,8,Joshua Cruz,Dallas Lincoln,125.1,170.1,104.33,138.35,412.77,Unlimited,SBD,M,
Boys,139.71,DQ,Calab Mitchell,Princeton,137.89,174.63,,,,Unlimited,SBD,M,
Boys,139.71,DQ,Gavin Stone,Leonard,134.26,158.76,,,,Unlimited,SBD,M,
Boys,139.71+,1,Braxton Armstrong,Leonard,159.66,204.12,147.42,179.17,530.7,Unlimited,SBD,M,
