Division,WeightClassKg,Place,Name,Team,BodyweightKg,Best3SquatKg,Best3BenchKg,Best3DeadliftKg,TotalKg,Equipment,Event,Sex,BirthDate
Boys,51.71,1,Braylon Porrel,Carrollton Ranchview,50.8,131.54,79.38,149.69,360.61,Unlimited,SBD,M,
Boys,55.79,1,Quadra Davis,Carrollton Ranchview,54.43,104.33,74.84,145.15,324.32,Unlimited,SBD,M,
Boys,59.87,1,Byron Ward,Carrollton Ranchview,58.06,127.01,83.91,145.15,356.07,Unlimited,SBD,M,
Boys,67.13,1,Josiah Samuel,Carrollton Ranchview,65.77,136.08,102.06,174.63,412.77,Unlimited,SBD,M,
Boys,67.13,2,Jaylon Winston,West Mesquite,65.32,115.67,61.23,117.93,294.84,Unlimited,SBD,M,
Boys,74.84,1,Jaedan Lester,Carrollton Ranchview,73.48,188.24,117.93,208.65,514.83,Unlimited,SBD,M,
Boys,74.84,2,Jason Samuel,Carrollton Ranchview,72.57,174.63,106.59,185.97,467.2,Unlimited,SBD,M,
Boys,74.84,3,Marq Townsend,Carrollton Ranchview,74.84,124.74,77.11,154.22,356.07,Unlimited,SBD,M,
Boys,74.84,4,David Castenda,West Mesquite,69.85,108.86,61.23,136.08,306.17,Unlimited,SBD,M,
Boys,74.84,5,Jose Leal,Mesquite Horn,73.94,81.65,83.91,133.81,299.37,Unlimited,SBD,M,
Boys,82.1,1,Braylon Ellis,Carrollton Ranchview,81.65,136.08,83.91,142.88,362.87,Unlimited,SBD,M,
Boys,82.1,2,Jereimah Hurd,Mesquite Horn,81.65,90.72,88.45,136.08,315.25,Unlimited,SBD,M,
Boys,89.81,1,DaeDrion Holley,West Mesquite,88.45,147.42,68.04,165.56,381.02,Unlimited,SBD,M,
Boys,89.81,2,Kendrick Coleman,West Mesquite,89.36,122.47,68.04,140.61,331.12,Unlimited,SBD,M,
Boys,89.81,3,Daniel Keeton,West Mesquite,88.45,124.74,61.23,131.54,317.51,Unlimited,SBD,M,
Boys,89.81,4,Daveion Allen,West Mesquite,88,97.52,70.31,142.88,310.71,Unlimited,SBD,M,
Boys,99.79,1,Brenlon Ellis,Carrollton Ranchview,97.52,197.31,124.74,238.14,560.19,Unlimited,SBD,M,
Boys,99.79,2,Alex Sanchez,West Mesquite,95.25,151.95,90.72,174.63,417.3,Unlimited,SBD,M,
Boys,109.77,1,Kevin Aguilar,Mesquite Horn,108.86,131.54,102.06,151.95,385.55,Unlimited,SBD,M,
Boys,109.77,2,David Mason,Mesquite Horn,108.86,142.88,83.91,158.76,385.55,Unlimited,SBD,M,
Boys,124.74,1,Andrew Garcia,Mesquite Horn,122.47,115.67,79.38,136.08,331.12,Unlimited,SBD,M,
Boys,124.74,DQ,Chris Nwachukwu,Mesquite Horn,124.28,,,,,Unlimited,SBD,M,
Boys,139.71,1,Chris Williams,Carrollton Ranchview,138.35,226.8,149.69,233.6,610.08,Unlimited,SBD,M,
Boys,139.71,2,Khalil Johnson,Carrollton Ranchview,136.08,204.12,142.88,183.7,530.7,Unlimited,SBD,M,
Boys,139.71,3,John Chatmon,Mesquite Horn,136.08,142.88,92.99,165.56,401.43,Unlimited,SBD,M,
Boys,139.71+,1,Keondre Hunter,Mesquite Horn,143.34,158.76,115.67,204.12,478.54,Unlimited,SBD,M,
Boys,139.71+,2,Robert Terry,Mesquite Horn,144.24,161.03,113.4,183.7,458.13,Unlimited,SBD,M,
Boys,139.71+,3,Adrian Gonzales,Carrollton Ranchview,140.61,179.17,88.45,183.7,451.32,Unlimited,SBD,M,
Boys,139.71+,4,Cody Wright,Mesquite Horn,145.15,165.56,111.13,174.63,451.32,Unlimited,SBD,M,
Boys,139.71+,DQ,Juan Avila,Mesquite Horn,145.15,,,,,Unlimited,SBD,M,
