Division,WeightClassKg,Place,Name,Team,BodyweightKg,Best3SquatKg,Best3BenchKg,Best3DeadliftKg,TotalKg,Equipment,Event,Sex,BirthDate
Boys,51.71,1,Jaime Reyna,Olton,50.03,142.88,90.72,158.76,392.36,Unlimited,SBD,M,
Boys,55.79,1,Alejandro Gonzales,Seminole,55.79,117.93,74.84,140.61,333.39,Unlimited,SBD,M,
Boys,55.79,2,Daniel Longoria,Plains,54.88,102.06,65.77,147.42,315.25,Unlimited,SBD,M,
Boys,59.87,1,Brody Pence,Denver City,58.88,120.2,68.04,124.74,312.98,Unlimited,SBD,M,
Boys,67.13,1,Ulises Larrea,Denver City,66.95,188.24,124.74,185.97,498.95,Unlimited,SBD,M,
Boys,67.13,2,Jhoan Menjivar,Plains,64.86,165.56,97.52,190.51,453.59,Unlimited,SBD,M,
Boys,67.13,3,Nathaniel Ruiz,Olton,62.78,145.15,97.52,149.69,392.36,Unlimited,SBD,M,
Boys,67.13,4,Elias Menjivar,Plains,63.5,140.61,90.72,149.69,381.02,Unlimited,SBD,M,
Boys,67.13,5,Josiah Carrizales,Denver City,65.23,145.15,86.18,142.88,374.21,Unlimited,SBD,M,
Boys,67.13,6,Jesus Caro,Plains,66.68,106.59,79.38,133.81,319.78,Unlimited,SBD,M,
Boys,67.13,7,Brady Robles,Plains,63.05,99.79,79.38,122.47,301.64,Unlimited,SBD,M,
Boys,74.84,1,Jonah Escalante,Denver City,69.9,158.76,145.15,176.9,480.81,Unlimited,SBD,M,
Boys,74.84,2,Kodee Roque,Olton,71.21,181.44,86.18,167.83,435.45,Unlimited,SBD,M,
Boys,74.84,3,Luis Marquez,Denver City,73.62,149.69,86.18,151.95,387.82,Unlimited,SBD,M,
Boys,74.84,4,Gauge Galvan,Denver City,72.76,138.35,90.72,133.81,362.87,Unlimited,SBD,M,
Boys,74.84,5,Gael Lozano,Plains,74.84,136.08,68.04,156.49,360.61,Unlimited,SBD,M,
Boys,74.84,6,Frnacisco Olvera,Seminole,72.57,122.47,83.91,142.88,349.27,Unlimited,SBD,M,
Boys,74.84,7,Aiden Garza,Seminole,68.49,133.81,63.5,147.42,344.73,Unlimited,SBD,M,
Boys,74.84,NS,Collin Simmons,Slaton,,,,,,Unlimited,SBD,M,
Boys,74.84,NS,Austin Simmons,Slaton,,,,,,Unlimited,SBD,M,
Boys,82.1,1,Nelson Avila,Plains,77.56,176.9,120.2,199.58,496.68,Unlimited,SBD,M,
Boys,82.1,2,Isaac Florentino,Olton,81.87,197.31,129.27,167.83,494.42,Unlimited,SBD,M,
Boys,82.1,3,Ethan Peters,Denver City,80.92,140.61,83.91,172.37,396.89,Unlimited,SBD,M,
Boys,89.81,1,Jose Velasco,Denver City,89.58,204.12,136.08,188.24,528.44,Unlimited,SBD,M,
Boys,89.81,2,Angel Sanchez,Seminole,88.9,188.24,106.59,229.06,523.9,Unlimited,SBD,M,
Boys,89.81,3,Gavin Ortiz,Olton,88.22,188.24,127.01,167.83,483.08,Unlimited,SBD,M,
Boys,89.81,4,Austin Vanriper,Seminole,88.99,183.7,120.2,165.56,469.47,Unlimited,SBD,M,
Boys,89.81,5,Halen Hadley,Seminole,87.09,165.56,106.59,192.78,464.93,Unlimited,SBD,M,
Boys,89.81,6,Martin Leon,Denver City,89.72,163.29,120.2,176.9,460.4,Unlimited,SBD,M,
Boys,89.81,7,Austin Vizcayno,Seminole,84.82,151.95,95.25,165.56,412.77,Unlimited,SBD,M,
Boys,89.81,DQ,Aaron Archuleta,Seminole,88.9,,,,,Unlimited,SBD,M,
Boys,99.79,1,Michael Matute,Olton,92.08,215.46,151.95,217.72,585.13,Unlimited,SBD,M,
Boys,99.79,2,Ryan Sinclair,Seminole,98.88,183.7,106.59,206.38,496.68,Unlimited,SBD,M,
Boys,99.79,3,Camden Huse,Denver City,96.39,174.63,117.93,188.24,480.81,Unlimited,SBD,M,
Boys,99.79,4,Kutter Peyton,Seminole,96.16,154.22,104.33,163.29,421.84,Unlimited,SBD,M,
Boys,99.79,5,Juan Mendoza,Denver City,94.48,158.76,99.79,158.76,417.3,Unlimited,SBD,M,
Boys,99.79,6,Colby Sanders,Seminole,92.53,151.95,88.45,170.1,410.5,Unlimited,SBD,M,
Boys,99.79,7,Brayan Dominguez,Denver City,95.35,142.88,97.52,142.88,383.29,Unlimited,SBD,M,
Boys,99.79,8,Israel Contreras,Plains,99.34,133.81,83.91,145.15,362.87,Unlimited,SBD,M,
Boys,99.79,9,Jorey Gutierrez,Seminole,98.88,138.35,70.31,131.54,340.19,Unlimited,SBD,M,
Boys,109.77,1,Angel Orona,Denver City,102.65,240.4,158.76,206.38,605.55,Unlimited,SBD,M,
Boys,109.77,2,Andres Hernandez,Denver City,103.1,192.78,115.67,167.83,476.27,Unlimited,SBD,M,
Boys,109.77,3,Owen Call,Seminole,105.23,165.56,97.52,174.63,437.72,Unlimited,SBD,M,
Boys,109.77,4,Brenden Garcia,Seminole,105.69,149.69,106.59,149.69,405.97,Unlimited,SBD,M,
Boys,109.77,5,Samuel Herrera,Seminole,109.77,163.29,88.45,151.95,403.7,Unlimited,SBD,M,
Boys,109.77,6,Romeo Castillo,Plains,108.41,133.81,77.11,149.69,360.61,Unlimited,SBD,M,
Boys,124.74,1,Kade Pope,Denver City,110.27,267.62,163.29,226.8,657.71,Unlimited,SBD,M,
Boys,124.74,2,Garrett Sellers,Seminole,120.2,199.58,136.08,183.7,519.36,Unlimited,SBD,M,
Boys,124.74,3,Isaiah Aguirre,Seminole,110.68,217.72,115.67,174.63,508.02,Unlimited,SBD,M,
Boys,124.74,4,Reno Deleon,Seminole,118.84,167.83,106.59,183.7,458.13,Unlimited,SBD,M,
Boys,124.74,DQ,Carson Cox #1,Seminole,117.03,,,,,Unlimited,SBD,M,
Boys,139.71,1,Julian Madrid,Denver City,129.32,226.8,142.88,206.38,576.06,Unlimited,SBD,M,
