Division,WeightClassKg,Place,Name,Team,BodyweightKg,Best3SquatKg,Best3BenchKg,Best3DeadliftKg,TotalKg,Equipment,Event,Sex,BirthDate
Boys,51.71,1,Brodie Flores,Victoria West,47.63,154.22,102.06,183.7,439.98,Unlimited,SBD,M,
Boys,51.71,2,Jordan Hudson,Bishop,51.71,133.81,61.23,145.15,340.19,Unlimited,SBD,M,
Boys,51.71,3,Izaac Orta,Santa Gertrudis Academy,51.26,115.67,74.84,115.67,306.17,Unlimited,SBD,M,
Boys,51.71,4,Zeke Orosco,Carrizo Springs,45.36,92.99,70.31,124.74,288.03,Unlimited,SBD,M,
Boys,51.71,NS,Nolan Chapa,Corpus Christi London,,,,,,Unlimited,SBD,M,
Boys,51.71,NS,Luis Ramírez,Aransas Pass,,,,,,Unlimited,SBD,M,
Boys,55.79,1,Jadrian Torres,Agua Dulce,54.43,172.37,120.2,183.7,476.27,Unlimited,SBD,M,
Boys,55.79,2,Ayden Benavidez,Corpus Christi London,55.79,181.44,102.06,174.63,458.13,Unlimited,SBD,M,
Boys,55.79,3,Hudson Hunter,Corpus Christi London,53.52,170.1,102.06,172.37,444.52,Unlimited,SBD,M,
Boys,55.79,4,Jason Vasquez,Corpus Christi London,53.52,158.76,111.13,142.88,412.77,Unlimited,SBD,M,
Boys,55.79,5,Emiliano Garcia,Bishop,52.8,142.88,81.65,149.69,374.21,Unlimited,SBD,M,
Boys,55.79,DQ,JJ Gonzalez,Bruni,53.52,145.15,,,,Unlimited,SBD,M,
Boys,59.87,1,Sammy Ronje,Bishop,59.42,206.38,142.88,208.65,557.92,Unlimited,SBD,M,
Boys,59.87,2,Tre Galvan,Bishop,59.87,195.04,106.59,206.38,508.02,Unlimited,SBD,M,
Boys,59.87,3,Austin Wesselski,Corpus Christi London,56.25,183.7,124.74,190.51,498.95,Unlimited,SBD,M,
Boys,59.87,4,Julio Palomo-Montelongo,Bishop,59.87,163.29,102.06,188.24,453.59,Unlimited,SBD,M,
Boys,59.87,5,Reymundo Falcon,Carrizo Springs,56.7,151.95,108.86,151.95,412.77,Unlimited,SBD,M,
Boys,59.87,6,Jonas Ruby,Victoria West,58.06,142.88,79.38,140.61,362.87,Unlimited,SBD,M,
Boys,59.87,7,Jose Perez,Bruni,58.97,133.81,77.11,145.15,356.07,Unlimited,SBD,M,
Boys,59.87,NS,Eric Ramos,Bruni,,,,,,Unlimited,SBD,M,
Boys,59.87,NS,Adam Quintero,Bruni,,,,,,Unlimited,SBD,M,
Boys,59.87,DQ,Matthew Williams,Victoria West,58.06,154.22,,,,Unlimited,SBD,M,
Boys,67.13,1,Zak Chapa,Corpus Christi London,63.5,229.06,138.35,210.92,578.33,Unlimited,SBD,M,
Boys,67.13,2,Joseph Benavides,Corpus Christi London,63.5,201.85,149.69,219.99,571.53,Unlimited,SBD,M,
Boys,67.13,3,Easton Nguyen,Corpus Christi London,65.32,204.12,145.15,215.46,564.72,Unlimited,SBD,M,
Boys,67.13,4,Hayes Hopkins,Victoria West,62.6,172.37,111.13,151.95,435.45,Unlimited,SBD,M,
Boys,67.13,5,Diego Padilla,Bruni,64.41,136.08,131.54,161.03,428.64,Unlimited,SBD,M,
Boys,67.13,6,Jacob Delaney,Aransas Pass,63.5,142.88,102.06,158.76,403.7,Unlimited,SBD,M,
Boys,74.84,1,Giancarlo Mirabal,Corpus Christi London,73.94,272.16,183.7,242.67,698.53,Unlimited,SBD,M,
Boys,74.84,2,Carlos Salazar,Carrizo Springs,72.57,208.65,124.74,213.19,546.58,Unlimited,SBD,M,
Boys,74.84,3,Travis Ochoa,Aransas Pass,72.57,204.12,151.95,188.24,544.31,Unlimited,SBD,M,
Boys,74.84,4,Benjamin DeLeon,Santa Gertrudis Academy,70.76,210.92,124.74,179.17,514.83,Unlimited,SBD,M,
Boys,74.84,5,Andrew Johnson,Bruni,73.48,195.04,117.93,199.58,512.56,Unlimited,SBD,M,
Boys,74.84,6,Aiden Carabajal,Victoria West,70.31,183.7,120.2,201.85,505.76,Unlimited,SBD,M,
Boys,74.84,7,Estevan Escobedo,Santa Gertrudis Academy,71.67,172.37,115.67,174.63,462.66,Unlimited,SBD,M,
Boys,74.84,8,Isaiah Bazaldua,Santa Gertrudis Academy,72.57,170.1,99.79,161.03,430.91,Unlimited,SBD,M,
Boys,74.84,9,Jeremiah Perez,Bruni,73.03,158.76,79.38,122.47,360.61,Unlimited,SBD,M,
Boys,74.84,10,Caleb Brown,Aransas Pass,72.57,88.45,81.65,115.67,285.76,Unlimited,SBD,M,
Boys,74.84,NS,Henry Schultz,Aransas Pass,,,,,,Unlimited,SBD,M,
Boys,74.84,DQ,Julian Gomez,Santa Gertrudis Academy,71.67,183.7,104.33,,,Unlimited,SBD,M,
Boys,82.1,1,Ayden Garcia,Santa Gertrudis Academy,78.47,254.01,156.49,249.48,659.98,Unlimited,SBD,M,
Boys,82.1,2,Chayse Mrazek,Bishop,81.92,238.14,142.88,219.99,601.01,Unlimited,SBD,M,
Boys,82.1,3,Michael Reyes,Carrizo Springs,77.11,197.31,149.69,217.72,564.72,Unlimited,SBD,M,
Boys,82.1,3,Brody Williamson,Corpus Christi London,77.56,142.88,111.13,190.51,444.52,Unlimited,SBD,M,
Boys,82.1,4,Chad Rozypal,Corpus Christi London,77.11,215.46,124.74,219.99,560.19,Unlimited,SBD,M,
Boys,82.1,5,Elijah Riojas,Santa Gertrudis Academy,77.56,217.72,124.74,176.9,519.36,Unlimited,SBD,M,
Boys,82.1,DQ,Kayden Leal,Victoria West,81.65,251.74,158.76,,,Unlimited,SBD,M,
Boys,89.81,1,Cael Francis,Victoria West,86.18,235.87,165.56,235.87,637.3,Unlimited,SBD,M,
Boys,89.81,2,Kevin Guajardo,Bishop,89.81,185.97,142.88,197.31,526.17,Unlimited,SBD,M,
Boys,99.79,1,Miguel Silva,Carrizo Springs,95.25,244.94,174.63,242.67,662.24,Unlimited,SBD,M,
Boys,99.79,2,Julio Jimenez,Carrizo Springs,98.88,224.53,145.15,229.06,598.74,Unlimited,SBD,M,
Boys,99.79,3,Jesse Cordova,Carrizo Springs,95.25,213.19,156.49,204.12,573.79,Unlimited,SBD,M,
Boys,99.79,4,Jackson Bryd,Victoria West,95.25,217.72,158.76,192.78,569.26,Unlimited,SBD,M,
Boys,99.79,5,Richard DeLeon,Bishop,94.44,204.12,104.33,165.56,474,Unlimited,SBD,M,
Boys,99.79,6,Ryan DeLaRosa,Santa Gertrudis Academy,95.25,151.95,86.18,149.69,387.82,Unlimited,SBD,M,
Boys,99.79,DQ,Jacob Alvarado,Aransas Pass,96.16,185.97,115.67,,,Unlimited,SBD,M,
Boys,99.79,DQ,Matthew Gutierrez,Carrizo Springs,96.16,188.24,156.49,,,Unlimited,SBD,M,
Boys,109.77,1,Jordan De La Rosa,Santa Gertrudis Academy,105.23,285.76,183.7,272.16,741.62,Unlimited,SBD,M,
Boys,109.77,2,Gabriel García #10,Victoria West,105.23,256.28,183.7,192.78,632.76,Unlimited,SBD,M,
Boys,109.77,3,Manuel Gutierrez,Carrizo Springs,104.33,217.72,156.49,185.97,560.19,Unlimited,SBD,M,
Boys,109.77,4,Valentin Gonzalez,Bishop,102.78,192.78,127.01,199.58,519.36,Unlimited,SBD,M,
Boys,109.77,5,Aaden Murphy,Aransas Pass,108.86,161.03,99.79,154.22,415.04,Unlimited,SBD,M,
Boys,124.74,1,Alejandro Delgado,Agua Dulce,119.29,272.16,199.58,199.58,671.32,Unlimited,SBD,M,
Boys,124.74,2,Trenton Meyer,Aransas Pass,122.47,188.24,142.88,161.03,492.15,Unlimited,SBD,M,
Boys,124.74,NS,Nathan Bain,Corpus Christi London,,,,,,Unlimited,SBD,M,
Boys,124.74,DQ,Elijah Flores,Victoria West,121.56,226.8,,,,Unlimited,SBD,M,
Boys,124.74,DQ,Matthew Rodriguez,Victoria West,122.47,,,,,Unlimited,SBD,M,
Boys,124.74,DQ,Nickalis Reyna,Bruni,120.2,,,,,Unlimited,SBD,M,
Boys,139.71,1,Jaeden Fraire,Victoria West,139.25,272.16,151.95,238.14,662.24,Unlimited,SBD,M,
Boys,139.71,2,Leopold Guerra,Santa Gertrudis Academy,136.08,195.04,122.47,172.37,489.88,Unlimited,SBD,M,
Boys,139.71,3,Ernesto Elizondo,Santa Gertrudis Academy,129.27,154.22,92.99,167.83,415.04,Unlimited,SBD,M,
Boys,139.71,4,Samuel Seanz,Santa Gertrudis Academy,131.54,142.88,74.84,131.54,349.27,Unlimited,SBD,M,
Boys,139.71,NS,Javier Santos,Carrizo Springs,,,,,,Unlimited,SBD,M,
Boys,139.71,DQ,Kaleb Cruz,Carrizo Springs,135.17,167.83,,,,Unlimited,SBD,M,
Boys,139.71+,1,Jerry Rodriguez,Carrizo Springs,142.88,235.87,129.27,249.48,614.62,Unlimited,SBD,M,
Boys,139.71+,2,Kevin Garner,Aransas Pass,163.29,215.46,138.35,154.22,508.02,Unlimited,SBD,M,
Boys,139.71+,3,Luka Garza,Agua Dulce,154.22,183.7,61.23,206.38,451.32,Unlimited,SBD,M,
Boys,139.71+,DQ,Michael Canchola,Aransas Pass,140.61,,,,,Unlimited,SBD,M,
