Division,WeightClassKg,Place,Name,Team,BodyweightKg,Best3SquatKg,Best3BenchKg,Best3DeadliftKg,TotalKg,Equipment,Event,Sex,BirthDate
Boys,51.71,1,Conner Myrow,Pittsburg,50.26,92.99,65.77,97.52,256.28,Unlimited,SBD,M,
Boys,51.71,2,Alejandro Castro,Mount Pleasant,49.53,90.72,47.63,113.4,251.74,Unlimited,SBD,M,
Boys,55.79,1,Andrew Jobe,Lindale,55.07,120.2,70.31,127.01,317.51,Unlimited,SBD,M,
Boys,55.79,2,Atticus Day-Aleman,Hughes Springs,55.7,92.99,74.84,115.67,283.5,Unlimited,SBD,M,
Boys,55.79,3,Ramiro Reyes,Pittsburg,55.79,104.33,54.43,95.25,254.01,Unlimited,SBD,M,
Boys,59.87,1,Konnor LaFountain,Paris,59.42,111.13,81.65,149.69,342.46,Unlimited,SBD,M,
Boys,59.87,2,Blake Broach,Mount Pleasant,59.06,124.74,81.65,133.81,340.19,Unlimited,SBD,M,
Boys,59.87,3,Isaac Hernandez,Mount Pleasant,57.06,92.99,52.16,115.67,260.82,Unlimited,SBD,M,
Boys,59.87,4,Josh Waters,Pittsburg,57.52,79.38,52.16,90.72,222.26,Unlimited,SBD,M,
Boys,59.87,DQ,Brody Perschbacher,Pittsburg,58.15,,,,,Unlimited,SBD,M,
Boys,59.87,DQ,Hunter Caraway,Harleton,59.51,,,,,Unlimited,SBD,M,
Boys,67.13,1,Brendan Scott,Harleton,67.13,165.56,115.67,181.44,462.66,Unlimited,SBD,M,
Boys,67.13,2,Aj Woods,Harleton,67.13,163.29,97.52,192.78,453.59,Unlimited,SBD,M,
Boys,67.13,3,Braydon Beck,Paris,66.04,165.56,106.59,172.37,444.52,Unlimited,SBD,M,
Boys,67.13,4,Ryker Rambatt,Lindale,61.69,142.88,102.06,158.76,403.7,Unlimited,SBD,M,
Boys,67.13,5,Kaiden Butler,Pittsburg,65.41,133.81,90.72,151.95,376.48,Unlimited,SBD,M,
Boys,67.13,6,Carl King,Mount Pleasant,65.68,124.74,74.84,142.88,342.46,Unlimited,SBD,M,
Boys,67.13,7,Daniel Castillo,Mount Pleasant,65.5,120.2,68.04,149.69,337.93,Unlimited,SBD,M,
Boys,67.13,8,Evan Mefford,Hughes Springs,65.32,115.67,88.45,131.54,335.66,Unlimited,SBD,M,
Boys,67.13,9,Jose Herrera-Flores,Pittsburg,66.22,111.13,79.38,138.35,328.85,Unlimited,SBD,M,
Boys,67.13,10,Hunter Christian,Lindale,62.05,120.2,72.57,122.47,315.25,Unlimited,SBD,M,
Boys,67.13,11,Eduardo Cruz,Mount Pleasant,63.59,95.25,52.16,102.06,249.48,Unlimited,SBD,M,
Boys,74.84,1,Kenton Franklin,Paris,71.58,154.22,120.2,199.58,474,Unlimited,SBD,M,
Boys,74.84,2,Blaine Shaw,Hughes Springs,71.4,167.83,108.86,151.95,428.64,Unlimited,SBD,M,
Boys,74.84,3,Justin Robertson,Mount Pleasant,73.57,151.95,79.38,151.95,383.29,Unlimited,SBD,M,
Boys,74.84,DQ,William Freeman,Lindale,73.48,176.9,108.86,,,Unlimited,SBD,M,
Boys,74.84,DQ,Luis Alvarado,Mount Pleasant,73.57,204.12,,,,Unlimited,SBD,M,
Boys,82.1,1,Cameron Johnson,Harleton,80.29,222.26,133.81,208.65,564.72,Unlimited,SBD,M,
Boys,82.1,2,Juymill Lewis,Mount Pleasant,79.38,201.85,124.74,219.99,546.58,Unlimited,SBD,M,
Boys,82.1,3,Jonathan Turner,Mount Pleasant,80.92,197.31,122.47,206.38,526.17,Unlimited,SBD,M,
Boys,82.1,4,Jordan Vickers,Pittsburg,78.65,192.78,113.4,199.58,505.76,Unlimited,SBD,M,
Boys,82.1,5,Landon McClung,Lindale,78.2,181.44,113.4,163.29,458.13,Unlimited,SBD,M,
Boys,82.1,6,George Lindsey,Hughes Springs,77.29,167.83,102.06,172.37,442.25,Unlimited,SBD,M,
Boys,82.1,7,Aaron Garcia,Pittsburg,77.38,158.76,83.91,163.29,405.97,Unlimited,SBD,M,
Boys,82.1,DQ,Bryson Taylor,Mount Pleasant,76.11,170.1,,,,Unlimited,SBD,M,
Boys,89.81,1,Harrison Prater,Lindale,86.64,210.92,181.44,188.24,580.6,Unlimited,SBD,M,
Boys,89.81,2,Seth Robertson,Mount Pleasant,88.99,195.04,106.59,204.12,505.76,Unlimited,SBD,M,
Boys,89.81,3,Dt Morgan,Paris,82.74,174.63,97.52,210.92,483.08,Unlimited,SBD,M,
Boys,89.81,4,Maxx Cantu,Hughes Springs,83.55,165.56,122.47,170.1,458.13,Unlimited,SBD,M,
Boys,89.81,5,Zachary Kellogg,Lindale,84.28,140.61,113.4,188.24,442.25,Unlimited,SBD,M,
Boys,89.81,6,John Woodworth,Lindale,89.63,145.15,113.4,163.29,421.84,Unlimited,SBD,M,
Boys,89.81,7,Zachary Massey,Hughes Springs,82.74,165.56,97.52,154.22,417.3,Unlimited,SBD,M,
Boys,89.81,8,Christian Villalta,Mount Pleasant,85.91,149.69,90.72,167.83,408.23,Unlimited,SBD,M,
Boys,89.81,9,Dylan Ramirez,Mount Pleasant,84.1,142.88,79.38,181.44,403.7,Unlimited,SBD,M,
Boys,89.81,10,Jonah Rhodes,Lindale,88.45,151.95,90.72,161.03,403.7,Unlimited,SBD,M,
Boys,99.79,1,Noel Fajardo,Harleton,99.43,247.21,149.69,260.82,657.71,Unlimited,SBD,M,
Boys,99.79,2,Devon Burtness,Mount Pleasant,97.16,247.21,170.1,210.92,628.23,Unlimited,SBD,M,
Boys,99.79,3,Matthew Roland,Paris,97.43,219.99,158.76,215.46,594.21,Unlimited,SBD,M,
Boys,99.79,4,Billy Prince,Hughes Springs,91.72,201.85,133.81,222.26,557.92,Unlimited,SBD,M,
Boys,99.79,5,Bruno DeLeon,Mount Pleasant,95.44,185.97,111.13,201.85,498.95,Unlimited,SBD,M,
Boys,99.79,6,Bobby Smith,Hughes Springs,99.06,170.1,117.93,183.7,471.74,Unlimited,SBD,M,
Boys,99.79,7,Antonio Hernandez,Mount Pleasant,99.79,124.74,95.25,179.17,399.16,Unlimited,SBD,M,
Boys,99.79,DQ,James Edwards,Lindale,99.79,,,,,Unlimited,SBD,M,
Boys,99.79,DQ,Landon Hernandez,Lindale,98.16,167.83,,,,Unlimited,SBD,M,
Boys,99.79,DQ,Brandon Laxton,Harleton,92.53,,,,,Unlimited,SBD,M,
Boys,109.77,1,Jose Gonzalez,Mount Pleasant,102.33,256.28,183.7,224.53,664.51,Unlimited,SBD,M,
Boys,109.77,2,Bryce Lockhart,Harleton,107.68,242.67,154.22,219.99,616.89,Unlimited,SBD,M,
Boys,109.77,3,Diego Merino,Paris,102.24,199.58,127.01,167.83,494.42,Unlimited,SBD,M,
Boys,109.77,4,Anthony Gonzalez,Mount Pleasant,102.51,83.91,45.36,113.4,242.67,Unlimited,SBD,M,
Boys,109.77,DQ,Ian Woodroof,Paris,108.14,,,,,Unlimited,SBD,M,
Boys,124.74,1,Jeremiah Smith,Paris,124.74,244.94,183.7,249.48,678.12,Unlimited,SBD,M,
Boys,124.74,2,Peyton Murray,Harleton,119.02,254.01,140.61,226.8,621.42,Unlimited,SBD,M,
Boys,124.74,3,Jackson Delivaudais,Lindale,111.49,185.97,102.06,181.44,469.47,Unlimited,SBD,M,
Boys,124.74,4,Alex Gaspar,Pittsburg,111.67,165.56,104.33,172.37,442.25,Unlimited,SBD,M,
Boys,124.74,5,Andrew Garrette,Mount Pleasant,109.86,161.03,90.72,165.56,417.3,Unlimited,SBD,M,
Boys,124.74,DQ,Clayton Miller,Mount Pleasant,114.67,,,,,Unlimited,SBD,M,
Boys,139.71,1,Fitchik Wallace,Paris,128.37,249.48,142.88,210.92,603.28,Unlimited,SBD,M,
Boys,139.71,2,Trenten Akers,Hughes Springs,135.81,251.74,133.81,208.65,594.21,Unlimited,SBD,M,
Boys,139.71,3,Colton Fugler,Harleton,136.62,206.38,120.2,163.29,489.88,Unlimited,SBD,M,
Boys,139.71,4,Javonte Smith,Pittsburg,132.72,161.03,102.06,199.58,462.66,Unlimited,SBD,M,
Boys,139.71,DQ,Kayden Johnson,Harleton,125.46,210.92,122.47,,,Unlimited,SBD,M,
Boys,139.71+,1,Zane Sears,Harleton,153.04,199.58,142.88,183.7,526.17,Unlimited,SBD,M,
Boys,139.71+,DQ,Brody Smith,Hughes Springs,144.79,,,,,Unlimited,SBD,M,
