Division,WeightClassKg,Place,Name,Team,BodyweightKg,Best3SquatKg,Best3BenchKg,Best3DeadliftKg,TotalKg,Equipment,Event,Sex,BirthDate
Boys,51.71,1,Brodie Flores,Victoria West,49.8,183.7,111.13,183.7,478.54,Unlimited,SBD,M,
Boys,51.71,2,Cesar Vazquez,Nixon Smiley,51.71,165.56,104.33,151.95,421.84,Unlimited,SBD,M,
Boys,51.71,3,Victor Roberson,Victoria East,51.17,163.29,95.25,161.03,419.57,Unlimited,SBD,M,
Boys,55.79,1,Joe Alarcon,Victoria East,55.47,181.44,113.4,183.7,478.54,Unlimited,SBD,M,
Boys,55.79,2,Michael Muniz,Goliad,54.84,170.1,95.25,174.63,439.98,Unlimited,SBD,M,
Boys,55.79,3,Noah Blevins,Goliad,54.93,154.22,95.25,156.49,405.97,Unlimited,SBD,M,
Boys,55.79,4,Anthony Tomanek,Victoria St. Joseph,55.29,133.81,97.52,154.22,385.55,Unlimited,SBD,M,
Boys,55.79,5,James Miori,Victoria West,55.79,142.88,74.84,142.88,360.61,Unlimited,SBD,M,
Boys,55.79,6,Elian Duncan,Refugio,55.52,68.04,47.63,79.38,195.04,Unlimited,SBD,M,
Boys,55.79,NS,Tyrin Garner,Rockport-Fulton,,,,,,Unlimited,SBD,M,
Boys,55.79,DQ,Ryan Sturgis,Robstown,55.75,163.29,,,,Unlimited,SBD,M,
Boys,55.79,DQ,Aiden Flores,Nixon Smiley,54.75,151.95,,,,Unlimited,SBD,M,
Boys,55.79,DQ,Andrew Meza,Nixon Smiley,54.57,136.08,,,,Unlimited,SBD,M,
Boys,59.87,1,Matthew Williams,Victoria West,59.65,163.29,102.06,165.56,430.91,Unlimited,SBD,M,
Boys,59.87,2,Isaiah Gonzales,Victoria East,59.51,161.03,86.18,163.29,410.5,Unlimited,SBD,M,
Boys,59.87,3,John Garza,Nixon Smiley,59.6,154.22,97.52,151.95,403.7,Unlimited,SBD,M,
Boys,59.87,4,Jonas Ruby,Victoria West,59.83,156.49,79.38,142.88,378.75,Unlimited,SBD,M,
Boys,67.13,1,Draven Garza,Victoria East,65.86,238.14,149.69,229.06,616.89,Unlimited,SBD,M,
Boys,67.13,2,Gabriel Garza,Robstown,66.86,231.33,147.42,224.53,603.28,Unlimited,SBD,M,
Boys,67.13,3,Traey Alvarado,Rockport-Fulton,66.77,217.72,136.08,210.92,564.72,Unlimited,SBD,M,
Boys,67.13,4,Randy Velasquez,Robstown,67.04,213.19,156.49,163.29,532.97,Unlimited,SBD,M,
Boys,67.13,5,Antonio Pena,Ingleside,67.04,192.78,133.81,197.31,523.9,Unlimited,SBD,M,
Boys,67.13,6,Antonio Guzman,Victoria East,66.54,185.97,115.67,197.31,498.95,Unlimited,SBD,M,
Boys,67.13,7,Eric Rodriguez,Nixon Smiley,66.9,167.83,124.74,161.03,453.59,Unlimited,SBD,M,
Boys,67.13,8,Yovanny Villa,Victoria East,63.68,167.83,102.06,179.17,449.06,Unlimited,SBD,M,
Boys,67.13,9,Hayes Hopkins,Victoria West,64.55,181.44,111.13,156.49,449.06,Unlimited,SBD,M,
Boys,67.13,10,Conrad Villanueva,Robstown,65.36,167.83,81.65,163.29,412.77,Unlimited,SBD,M,
Boys,67.13,11,Jaydin Munoz,Nixon Smiley,67.13,142.88,81.65,161.03,385.55,Unlimited,SBD,M,
Boys,67.13,12,Eythan Diaz,Refugio,64.59,81.65,61.23,111.13,254.01,Unlimited,SBD,M,
Boys,67.13,NS,Xavier Garcia,Corpus Christi West Oso,,,,,,Unlimited,SBD,M,
Boys,67.13,NS,Benjamin Molina,Corpus Christi West Oso,,,,,,Unlimited,SBD,M,
Boys,67.13,DQ,Joshua Arroyos,Beeville Jones,67.13,,,,,Unlimited,SBD,M,
Boys,67.13,DQ,Jose Olvera,Nixon Smiley,67.09,,,,,Unlimited,SBD,M,
Boys,67.13,DQ,Franscisco Acosta,Nixon Smiley,66.27,,,,,Unlimited,SBD,M,
Boys,67.13,DQ,Justin Edison,Goliad,65.14,167.83,122.47,,,Unlimited,SBD,M,
Boys,67.13,DQ,Adrian Sanchez-Lara,Victoria West,64.64,124.74,,,,Unlimited,SBD,M,
Boys,67.13,DQ,Aaron Posada,Victoria West,66.72,149.69,,,,Unlimited,SBD,M,
Boys,74.84,1,Duran Jason,Victoria West,74.48,260.82,165.56,272.16,698.53,Unlimited,SBD,M,
Boys,74.84,2,Fernando Vega,Corpus Christi West Oso,74.84,210.92,174.63,206.38,591.94,Unlimited,SBD,M,
Boys,74.84,3,Zion Sanders,Bay City,74.3,224.53,142.88,222.26,589.67,Unlimited,SBD,M,
Boys,74.84,4,Aiden Carabajal,Victoria West,72.35,192.78,136.08,192.78,521.63,Unlimited,SBD,M,
Boys,74.84,5,Miguel Valerio,Nixon Smiley,73.35,181.44,133.81,185.97,501.22,Unlimited,SBD,M,
Boys,74.84,6,Ryan DeLuna,Robstown,73.98,179.17,129.27,181.44,489.88,Unlimited,SBD,M,
Boys,74.84,7,Anthonie Cordova,Ingleside,72.08,163.29,102.06,170.1,435.45,Unlimited,SBD,M,
Boys,74.84,8,Noah Alvarado,Victoria West,73.44,142.88,106.59,140.61,390.09,Unlimited,SBD,M,
Boys,74.84,9,Jonathan Solansky,Refugio,68.17,136.08,79.38,163.29,378.75,Unlimited,SBD,M,
Boys,74.84,10,Davion Arellano,Bay City,73.66,136.08,77.11,145.15,358.34,Unlimited,SBD,M,
Boys,82.1,1,Jordan Stafford,Victoria East,78.79,244.94,158.76,249.48,653.17,Unlimited,SBD,M,
Boys,82.1,2,Kayden Leal,Victoria West,81.65,265.35,156.49,224.53,646.37,Unlimited,SBD,M,
Boys,82.1,3,Gilbert Rios,Robstown,81.24,240.4,158.76,224.53,623.69,Unlimited,SBD,M,
Boys,82.1,4,Josh Valdez,Goliad,80.78,226.8,151.95,197.31,576.06,Unlimited,SBD,M,
Boys,82.1,5,Preston Janak,Victoria St. Joseph,80.24,219.99,133.81,215.46,569.26,Unlimited,SBD,M,
Boys,82.1,6,Kason Gonzales,Victoria West,79.97,192.78,129.27,224.53,546.58,Unlimited,SBD,M,
Boys,82.1,7,Ray Espinoza,Beeville Jones,79.47,197.31,131.54,170.1,498.95,Unlimited,SBD,M,
Boys,82.1,8,Lucas Gaitan,Beeville Jones,78.15,197.31,111.13,170.1,478.54,Unlimited,SBD,M,
Boys,82.1,9,Draven Ayala,Corpus Christi West Oso,80.06,122.47,95.25,147.42,365.14,Unlimited,SBD,M,
Boys,82.1,NS,Joseph Reyes,Corpus Christi West Oso,,,,,,Unlimited,SBD,M,
Boys,82.1,NS,Noah Delgado,Corpus Christi West Oso,,,,,,Unlimited,SBD,M,
Boys,82.1,NS,Gavin Garcia,Nixon Smiley,,,,,,Unlimited,SBD,M,
Boys,82.1,DQ,Blizao De La Rosa,Bloomington,81.78,,,,,Unlimited,SBD,M,
Boys,82.1,DQ,Jesus De La Garza,Bloomington,79.51,151.95,,,,Unlimited,SBD,M,
Boys,82.1,DQ,Georgio Garcia,Victoria West,79.51,185.97,,,,Unlimited,SBD,M,
Boys,89.81,1,Noah Neibrandt,Victoria West,89.09,294.84,176.9,283.5,755.23,Unlimited,SBD,M,
Boys,89.81,2,Ryne Espinoza,Beeville Jones,86.32,301.64,192.78,254.01,748.43,Unlimited,SBD,M,
Boys,89.81,3,Kade Alston,Rockport-Fulton,89.81,244.94,161.03,235.87,641.83,Unlimited,SBD,M,
Boys,89.81,4,Cayden Cantu,Victoria East,86.32,238.14,142.88,226.8,607.81,Unlimited,SBD,M,
Boys,89.81,5,Xavier Salazar,Victoria East,89.27,215.46,142.88,249.48,607.81,Unlimited,SBD,M,
Boys,89.81,6,Christian Diaz,Victoria West,87.36,210.92,136.08,226.8,573.79,Unlimited,SBD,M,
Boys,89.81,7,Gabriel García #9,Victoria East,85.37,226.8,129.27,215.46,571.53,Unlimited,SBD,M,
Boys,89.81,8,Ruben Villareal,Port Lavaca Calhoun,87.59,217.72,142.88,208.65,569.26,Unlimited,SBD,M,
Boys,89.81,9,John Cantu,Victoria St. Joseph,89.27,197.31,151.95,213.19,562.45,Unlimited,SBD,M,
Boys,89.81,10,Carlos Loredo,Beeville Jones,88.68,204.12,117.93,204.12,526.17,Unlimited,SBD,M,
Boys,89.81,11,Jo Jo Martinez,Goliad,84.87,197.31,136.08,188.24,521.63,Unlimited,SBD,M,
Boys,89.81,12,Aiden Jackson,Victoria St. Joseph,86.27,204.12,127.01,185.97,517.1,Unlimited,SBD,M,
Boys,89.81,13,Adan Zavala,Nixon Smiley,89.63,199.58,133.81,183.7,517.1,Unlimited,SBD,M,
Boys,89.81,14,Douglas Farrell,Refugio,84.59,197.31,120.2,195.04,512.56,Unlimited,SBD,M,
Boys,89.81,15,Dominic Smith,Beeville Jones,87.68,192.78,124.74,192.78,510.29,Unlimited,SBD,M,
Boys,89.81,16,Alan Espino,Nixon Smiley,87.63,183.7,120.2,183.7,487.61,Unlimited,SBD,M,
Boys,89.81,17,Jaylun Rodriguez,Nixon Smiley,88.68,183.7,108.86,179.17,471.74,Unlimited,SBD,M,
Boys,89.81,18,Jarin Otis,Victoria West,86.64,163.29,92.99,192.78,449.06,Unlimited,SBD,M,
Boys,89.81,19,Colton Gay,Victoria West,89.13,136.08,92.99,156.49,385.55,Unlimited,SBD,M,
Boys,89.81,20,Tyler Kirkpatrick,Victoria St. Joseph,83.37,136.08,81.65,127.01,344.73,Unlimited,SBD,M,
Boys,89.81,21,Manuel Alvarez,Corpus Christi West Oso,88,136.08,61.23,111.13,308.44,Unlimited,SBD,M,
Boys,89.81,NS,Jonathan Lucio,Corpus Christi West Oso,,,,,,Unlimited,SBD,M,
Boys,89.81,NS,Ruben Garza,Bay City,,,,,,Unlimited,SBD,M,
Boys,89.81,DQ,Thomas Copeland,Victoria St. Joseph,86.68,,,,,Unlimited,SBD,M,
Boys,99.79,1,Jacob Martin,Beeville Jones,96.03,260.82,161.03,215.46,637.3,Unlimited,SBD,M,
Boys,99.79,2,Jackson Byrd,Victoria West,96.48,238.14,172.37,197.31,607.81,Unlimited,SBD,M,
Boys,99.79,3,Jake Jenkins,Port Lavaca Calhoun,97.93,235.87,158.76,197.31,591.94,Unlimited,SBD,M,
Boys,99.79,4,Gustavo Ochoa,Bay City,94.26,201.85,145.15,201.85,548.85,Unlimited,SBD,M,
Boys,99.79,5,Jorge Rasso,Bay City,94.94,190.51,106.59,190.51,487.61,Unlimited,SBD,M,
Boys,99.79,6,Benji Williams,Bay City,89.95,142.88,77.11,156.49,376.48,Unlimited,SBD,M,
Boys,109.77,1,Cayetano Vidaurri,Beeville Jones,108.41,317.51,183.7,226.8,728.02,Unlimited,SBD,M,
Boys,109.77,2,Ethan Sanchez,Beeville Jones,102.78,254.01,115.67,206.38,576.06,Unlimited,SBD,M,
Boys,109.77,3,Emilio Ortiz,Port Lavaca Calhoun,108.59,208.65,124.74,208.65,542.04,Unlimited,SBD,M,
Boys,109.77,4,Anthony Brown,Victoria St. Joseph,108.82,163.29,106.59,165.56,435.45,Unlimited,SBD,M,
Boys,109.77,5,Douglas Feijoo Contreras,Refugio,109.77,154.22,99.79,179.17,433.18,Unlimited,SBD,M,
Boys,109.77,6,Matthew Pena,Victoria St. Joseph,106.82,115.67,61.23,120.2,297.1,Unlimited,SBD,M,
Boys,109.77,NS,Courtney Williams,Bay City,,,,,,Unlimited,SBD,M,
Boys,109.77,DQ,Aiden Williams,Rockport-Fulton,105.28,174.63,113.4,,,Unlimited,SBD,M,
Boys,109.77,DQ,Gabriel García #10,Victoria West,106.37,265.35,,,,Unlimited,SBD,M,
Boys,124.74,1,Carlos Trevino,Robstown,122.7,290.3,204.12,240.4,734.82,Unlimited,SBD,M,
Boys,124.74,2,Jakob Pesina,Bay City,115.94,274.42,197.31,240.4,712.14,Unlimited,SBD,M,
Boys,124.74,3,Arnulfo Puga,Beeville Jones,122.88,285.76,197.31,222.26,705.34,Unlimited,SBD,M,
Boys,124.74,4,Manuel Hinojosa,Ingleside,122.83,272.16,161.03,226.8,659.98,Unlimited,SBD,M,
Boys,124.74,5,Elijah Flores,Victoria West,124.01,233.6,142.88,197.31,573.79,Unlimited,SBD,M,
Boys,124.74,6,Gavin Chavez,Port Lavaca Calhoun,118.89,226.8,149.69,190.51,566.99,Unlimited,SBD,M,
Boys,124.74,7,Jonathan Rivera,Victoria East,122.52,208.65,156.49,190.51,555.65,Unlimited,SBD,M,
Boys,124.74,8,Anthony Leyba,Corpus Christi West Oso,112.94,190.51,136.08,192.78,519.36,Unlimited,SBD,M,
Boys,124.74,9,Alexander Pesina,Robstown,116.57,190.51,142.88,183.7,517.1,Unlimited,SBD,M,
Boys,124.74,10,Jordan Longoria,Bloomington,110.4,188.24,113.4,181.44,483.08,Unlimited,SBD,M,
Boys,124.74,11,Michael Chavez,Bay City,112.35,176.9,106.59,172.37,455.86,Unlimited,SBD,M,
Boys,124.74,12,Marcelo Armenta,Beeville Jones,117.12,147.42,95.25,179.17,421.84,Unlimited,SBD,M,
Boys,124.74,DQ,Daymen Lopez,Bloomington,111.49,,,,,Unlimited,SBD,M,
Boys,124.74,DQ,Bryan Tinajero,Bloomington,111.49,,,,,Unlimited,SBD,M,
Boys,124.74,DQ,Logan McGrath,Ingleside,115.76,,,,,Unlimited,SBD,M,
Boys,124.74,DQ,Zachary Vela,Robstown,114.58,201.85,145.15,,,Unlimited,SBD,M,
Boys,139.71,1,Benjamin Oyervides,Robstown,139.25,292.57,226.8,247.21,766.57,Unlimited,SBD,M,
Boys,139.71,2,Jesus Martinez,Beeville Jones,134.81,224.53,170.1,231.33,625.96,Unlimited,SBD,M,
Boys,139.71,3,Jeremy Maradiaga,Bay City,127.82,256.28,151.95,204.12,612.35,Unlimited,SBD,M,
Boys,139.71,4,Noah Jenks,Nixon Smiley,125.96,215.46,149.69,206.38,571.53,Unlimited,SBD,M,
Boys,139.71,5,Carlos Jaramillo,Bay City,128.23,213.19,122.47,197.31,532.97,Unlimited,SBD,M,
Boys,139.71,6,Nate Morgan,Ingleside,124.92,195.04,140.61,188.24,523.9,Unlimited,SBD,M,
Boys,139.71,7,Matthew Rodriguez,Victoria West,129.27,226.8,142.88,147.42,517.1,Unlimited,SBD,M,
Boys,139.71,8,Daniel Crespin,Rockport-Fulton,135.03,208.65,106.59,185.97,501.22,Unlimited,SBD,M,
Boys,139.71,NS,Joe Hernandez,Corpus Christi West Oso,,,,,,Unlimited,SBD,M,
Boys,139.71,DQ,Adrian Cantu,Corpus Christi West Oso,126.82,,,,,Unlimited,SBD,M,
Boys,139.71,DQ,Jaeden Fraire,Victoria West,136.98,,,,,Unlimited,SBD,M,
Boys,139.71+,1,Peyton Torres,Beeville Jones,148.14,263.08,192.78,229.06,684.92,Unlimited,SBD,M,
Boys,139.71+,2,Michael Pina,Victoria East,140.98,272.16,183.7,217.72,673.58,Unlimited,SBD,M,
Boys,139.71+,NS,Brody Aguilar,Bay City,,,,,,Unlimited,SBD,M,
